2.000000000000000000e+00 1.189373462935896797e-01
6.000000000000000000e+00 1.180187505163065448e-01
7.000000000000000000e+00 1.001293400888864649e-01
8.000000000000000000e+00 1.028231630032596655e-01
1.000000000000000000e+01 1.132899764371536333e-01
1.100000000000000000e+01 1.178097987198123836e-01
1.200000000000000000e+01 9.696635569753794814e-02
1.600000000000000000e+01 1.208662636286326614e-01
1.700000000000000000e+01 1.099100623202422800e-01
2.500000000000000000e+01 1.128476565647472396e-01
2.800000000000000000e+01 1.059194757622868299e-01
2.900000000000000000e+01 1.237446544961732092e-01
3.000000000000000000e+01 1.158043491878166381e-01
3.100000000000000000e+01 1.110629451016221236e-01
3.500000000000000000e+01 1.142559238154259582e-01
3.600000000000000000e+01 1.131240182485361845e-01
3.700000000000000000e+01 9.328378392241713779e-02
4.000000000000000000e+01 1.088804263601428346e-01
4.500000000000000000e+01 1.230993238786808747e-01
5.000000000000000000e+01 9.611654990599191595e-02
5.200000000000000000e+01 1.059870229555415350e-01
5.400000000000000000e+01 1.059469882234265470e-01
5.600000000000000000e+01 1.205475743741786093e-01
5.900000000000000000e+01 1.237702374253971116e-01
6.200000000000000000e+01 9.049910583371112427e-02
6.400000000000000000e+01 1.185013513293092235e-01
6.500000000000000000e+01 1.112483187579642596e-01
6.700000000000000000e+01 1.195047787031036784e-01
6.800000000000000000e+01 1.080139401362551210e-01
6.900000000000000000e+01 1.214494637812641720e-01
7.000000000000000000e+01 1.126068250749976962e-01
7.200000000000000000e+01 1.024595836420649220e-01
7.500000000000000000e+01 1.176764605736108360e-01
7.600000000000000000e+01 1.130277990177923908e-01
7.800000000000000000e+01 1.106716029419957670e-01
8.000000000000000000e+01 1.141860764091403579e-01
8.400000000000000000e+01 1.246062137855183938e-01
8.500000000000000000e+01 1.226585961106515105e-01
8.600000000000000000e+01 1.039942523055787937e-01
8.700000000000000000e+01 9.865145915342440897e-02
9.700000000000000000e+01 1.207259989108833698e-01
9.900000000000000000e+01 1.080091837670130450e-01
1.000000000000000000e+02 1.036374787204505932e-01
1.030000000000000000e+02 1.167758374886156414e-01
1.050000000000000000e+02 1.217956394683580162e-01
1.070000000000000000e+02 1.183894130604490613e-01
1.090000000000000000e+02 9.003163325128818451e-02
1.130000000000000000e+02 1.261295063009600925e-01
1.140000000000000000e+02 1.014594910636925362e-01
1.150000000000000000e+02 1.116072262216836614e-01
1.190000000000000000e+02 1.093671532361504828e-01
1.230000000000000000e+02 1.039034330481138635e-01
1.240000000000000000e+02 1.096157656534363367e-01
1.250000000000000000e+02 -1.049605010993270304e-01
1.280000000000000000e+02 -1.128326425399210770e-01
1.290000000000000000e+02 -1.266103060268441993e-01
1.310000000000000000e+02 -1.257845239395881110e-01
1.320000000000000000e+02 -1.080477637065117014e-01
1.330000000000000000e+02 -1.146140492916595116e-01
1.340000000000000000e+02 -1.226521068699636396e-01
1.350000000000000000e+02 -1.000895319016861518e-01
1.360000000000000000e+02 -1.129225216956699085e-01
1.380000000000000000e+02 -9.616677681748105055e-02
1.390000000000000000e+02 -1.162961653242697568e-01
1.400000000000000000e+02 -1.042314146124624780e-01
1.410000000000000000e+02 -1.073731041856726409e-01
1.420000000000000000e+02 -1.161362432200986755e-01
1.430000000000000000e+02 -9.579766750030876965e-02
1.440000000000000000e+02 -1.103242322315373392e-01
1.450000000000000000e+02 -1.238989511365301693e-01
1.480000000000000000e+02 -9.886960000103134361e-02
1.490000000000000000e+02 -1.140749712422479412e-01
1.500000000000000000e+02 -1.225830093522254499e-01
1.560000000000000000e+02 -1.042052033028141034e-01
1.600000000000000000e+02 -1.207618888275745483e-01
1.630000000000000000e+02 -1.117186126910714589e-01
1.660000000000000000e+02 -1.108528252920220336e-01
1.670000000000000000e+02 -1.198026427368283908e-01
1.700000000000000000e+02 -1.262579615659890075e-01
1.710000000000000000e+02 -1.207399356349900948e-01
1.720000000000000000e+02 -1.085912142740092373e-01
1.730000000000000000e+02 -1.235893189346772281e-01
1.750000000000000000e+02 -1.068624735220795319e-01
1.780000000000000000e+02 -1.083900421157969474e-01
1.800000000000000000e+02 -1.243588846457703845e-01
1.810000000000000000e+02 -9.978751866434394657e-02
1.820000000000000000e+02 -1.125845382388311056e-01
1.830000000000000000e+02 -1.215906116109661955e-01
1.850000000000000000e+02 -1.077611771243243005e-01
1.880000000000000000e+02 -9.773395503376729188e-02
1.910000000000000000e+02 -1.082406698719687449e-01
1.920000000000000000e+02 -1.324571127465822562e-01
1.930000000000000000e+02 -1.078901934845042099e-01
1.950000000000000000e+02 -1.225418903215174105e-01
1.960000000000000000e+02 -1.008664172875136378e-01
1.970000000000000000e+02 -1.141293879735613553e-01
1.980000000000000000e+02 -1.167105599304709140e-01
1.990000000000000000e+02 -1.045755448954444888e-01
2.000000000000000000e+02 -1.032261003885853734e-01
2.030000000000000000e+02 -1.067042273789449019e-01
2.070000000000000000e+02 -1.150761850723126117e-01
2.100000000000000000e+02 -1.151256325430531219e-01
2.110000000000000000e+02 -1.129864531956904505e-01
2.140000000000000000e+02 -1.120169813891923882e-01
2.150000000000000000e+02 -1.177744418746555499e-01
2.200000000000000000e+02 -1.081007867661949173e-01
2.220000000000000000e+02 -1.175877897549409967e-01
2.280000000000000000e+02 -1.040780096282294676e-01
2.300000000000000000e+02 -1.128047759777546094e-01
2.320000000000000000e+02 -1.114114671588282285e-01
2.330000000000000000e+02 -1.188895543229323698e-01
2.350000000000000000e+02 -1.125946129070937718e-01
2.360000000000000000e+02 -1.319611336201312046e-01
2.380000000000000000e+02 -1.267109579278801190e-01
2.390000000000000000e+02 -1.071679498613671427e-01
2.400000000000000000e+02 -1.057919846361364963e-01
2.420000000000000000e+02 -9.775586699736565910e-02
2.440000000000000000e+02 -1.174218315782737387e-01
2.480000000000000000e+02 -1.007691585709159371e-01
2.490000000000000000e+02 -1.210623408648457966e-01
2.510000000000000000e+02 1.099934734581595464e-01
2.530000000000000000e+02 1.152761911416490537e-01
2.540000000000000000e+02 1.057610424490376122e-01
2.570000000000000000e+02 9.852569643208936023e-02
2.600000000000000000e+02 1.141114594686564870e-01
2.620000000000000000e+02 1.050464854350356969e-01
2.630000000000000000e+02 1.191805009728332393e-01
2.650000000000000000e+02 1.157542329664237868e-01
2.660000000000000000e+02 1.020033316348192831e-01
2.700000000000000000e+02 1.113529218821440181e-01
2.710000000000000000e+02 1.011991040043574014e-01
2.750000000000000000e+02 1.193640570200378143e-01
2.770000000000000000e+02 1.017491073802851420e-01
2.790000000000000000e+02 1.060929507326371368e-01
2.800000000000000000e+02 1.162420000817255411e-01
2.820000000000000000e+02 1.285547689961436257e-01
2.830000000000000000e+02 1.179855286094399214e-01
2.850000000000000000e+02 9.965080754731095447e-02
2.860000000000000000e+02 1.311913189821661552e-01
2.890000000000000000e+02 1.237843753709134270e-01
2.920000000000000000e+02 1.121884018804155669e-01
2.950000000000000000e+02 1.197420273600399293e-01
2.990000000000000000e+02 1.053856656599178182e-01
3.000000000000000000e+02 1.159630362441758794e-01
3.030000000000000000e+02 1.101796646490129650e-01
3.050000000000000000e+02 1.071846635703564560e-01
3.070000000000000000e+02 1.156859465970647427e-01
3.080000000000000000e+02 1.242656324263981815e-01
3.090000000000000000e+02 1.132972668103698066e-01
3.100000000000000000e+02 1.023535016243846546e-01
3.120000000000000000e+02 1.010499360194436619e-01
3.130000000000000000e+02 1.223984415476277454e-01
3.160000000000000000e+02 1.200629930913126309e-01
3.170000000000000000e+02 1.129703288615429291e-01
3.180000000000000000e+02 1.119075171631446347e-01
3.240000000000000000e+02 1.177732284878579144e-01
3.250000000000000000e+02 1.045523685499965411e-01
3.260000000000000000e+02 1.112441852979014212e-01
3.290000000000000000e+02 1.149602147328038226e-01
3.320000000000000000e+02 1.023056512214282621e-01
3.330000000000000000e+02 1.067111441334918920e-01
3.340000000000000000e+02 8.932756341307768189e-02
3.380000000000000000e+02 1.096141419621465274e-01
3.390000000000000000e+02 1.058932101838698514e-01
3.410000000000000000e+02 1.017777160814583859e-01
3.420000000000000000e+02 1.201558588728576654e-01
3.450000000000000000e+02 1.020868467497855619e-01
3.470000000000000000e+02 1.155449636051309598e-01
3.480000000000000000e+02 1.004942586686577988e-01
3.490000000000000000e+02 1.237724663024228761e-01
3.520000000000000000e+02 1.040937608394080366e-01
3.540000000000000000e+02 1.206460246750051674e-01
3.550000000000000000e+02 1.320914950156629464e-01
3.570000000000000000e+02 1.134202513603747159e-01
3.590000000000000000e+02 1.056112192450045367e-01
3.600000000000000000e+02 1.086919093183697643e-01
3.610000000000000000e+02 1.111925832452814733e-01
3.620000000000000000e+02 1.038690131231563285e-01
3.630000000000000000e+02 1.202828041562365308e-01
3.640000000000000000e+02 1.126065927632915187e-01
3.680000000000000000e+02 9.947676667859176036e-02
3.690000000000000000e+02 1.211800623680753253e-01
3.730000000000000000e+02 1.034967164011877799e-01
3.740000000000000000e+02 1.108356480295079050e-01
3.760000000000000000e+02 -1.100161543788789054e-01
3.780000000000000000e+02 -1.156211292540577223e-01
3.790000000000000000e+02 -9.950120693702349528e-02
3.800000000000000000e+02 -1.029624252754553770e-01
3.810000000000000000e+02 -1.189277303310914274e-01
3.820000000000000000e+02 -1.228649938519866258e-01
3.830000000000000000e+02 -1.173336850631552519e-01
3.840000000000000000e+02 -1.211869321154905726e-01
3.850000000000000000e+02 -1.286468153282108173e-01
3.860000000000000000e+02 -1.239252814693621030e-01
3.870000000000000000e+02 -9.674888645335705251e-02
3.900000000000000000e+02 -1.067702901720471859e-01
3.920000000000000000e+02 -1.097436042206679091e-01
3.940000000000000000e+02 -1.003004747763018567e-01
3.960000000000000000e+02 -1.137856860651741825e-01
3.970000000000000000e+02 -1.066350168538969523e-01
3.990000000000000000e+02 -1.201860576452281615e-01
4.010000000000000000e+02 -1.075086532358741631e-01
4.030000000000000000e+02 -1.092300976991259359e-01
4.040000000000000000e+02 -1.152588275924441852e-01
4.070000000000000000e+02 -1.113882694645851185e-01
4.080000000000000000e+02 -1.083148899559537304e-01
4.090000000000000000e+02 -1.236505561522745489e-01
4.110000000000000000e+02 -1.205581730125824813e-01
4.120000000000000000e+02 -1.052671768099752159e-01
4.150000000000000000e+02 -1.149024959754654795e-01
4.200000000000000000e+02 -1.184241774574114614e-01
4.220000000000000000e+02 -9.810653651406443798e-02
4.260000000000000000e+02 -1.068702811793127289e-01
4.280000000000000000e+02 -1.103607954436693073e-01
4.320000000000000000e+02 -1.073855556521375321e-01
4.330000000000000000e+02 -1.059803093944058777e-01
4.360000000000000000e+02 -1.243202355102925594e-01
4.380000000000000000e+02 -1.302723609513398162e-01
4.430000000000000000e+02 -1.163858493481848277e-01
4.440000000000000000e+02 -1.079269661085955345e-01
4.450000000000000000e+02 -1.101209536587150900e-01
4.460000000000000000e+02 -1.293836945433851637e-01
4.470000000000000000e+02 -1.227552417581595223e-01
4.490000000000000000e+02 -1.105356206578061856e-01
4.510000000000000000e+02 -1.120528193473521311e-01
4.550000000000000000e+02 -1.058657855185728691e-01
4.580000000000000000e+02 -1.270241241611428928e-01
4.630000000000000000e+02 -1.211157818841878814e-01
4.640000000000000000e+02 -1.084021609260699681e-01
4.660000000000000000e+02 -1.094316400654011118e-01
4.710000000000000000e+02 -9.556843700654577001e-02
4.720000000000000000e+02 -1.010447099970159662e-01
4.730000000000000000e+02 -1.196376439442664863e-01
4.760000000000000000e+02 -1.079480497862318200e-01
4.770000000000000000e+02 -9.921422804387319827e-02
4.810000000000000000e+02 -9.139181162079323961e-02
4.820000000000000000e+02 -1.125210923201606095e-01
4.860000000000000000e+02 -1.222482319858885502e-01
4.890000000000000000e+02 -1.011253930827464426e-01
4.900000000000000000e+02 -1.166352912854638213e-01
4.920000000000000000e+02 -9.103507920761319538e-02
4.940000000000000000e+02 -1.098463322591345659e-01
4.950000000000000000e+02 -1.372714393980984104e-01
4.980000000000000000e+02 -1.133459387989045886e-01
4.990000000000000000e+02 -1.143003819982429947e-01
5.010000000000000000e+02 1.150314117836418598e-01
5.020000000000000000e+02 1.199991883773498802e-01
5.030000000000000000e+02 1.333482410774121663e-01
5.050000000000000000e+02 1.033261335738579478e-01
5.060000000000000000e+02 1.094934916931279284e-01
5.070000000000000000e+02 1.127927896341111014e-01
5.080000000000000000e+02 1.296724145819586616e-01
5.110000000000000000e+02 1.036277397966402503e-01
5.120000000000000000e+02 1.085179372765533029e-01
5.180000000000000000e+02 9.588389667475658018e-02
5.190000000000000000e+02 1.177480331102948030e-01
5.240000000000000000e+02 1.145168810229817979e-01
5.250000000000000000e+02 1.184968858671008873e-01
5.260000000000000000e+02 1.204353075103911652e-01
5.270000000000000000e+02 1.108604627155982542e-01
5.280000000000000000e+02 1.223366437472522689e-01
5.290000000000000000e+02 1.055944189652021636e-01
5.300000000000000000e+02 1.185145073201118865e-01
5.320000000000000000e+02 1.226614892149566483e-01
5.360000000000000000e+02 1.123897540185389704e-01
5.370000000000000000e+02 1.297889858801488105e-01
5.380000000000000000e+02 1.269100326140741031e-01
5.390000000000000000e+02 1.084479397419995106e-01
5.400000000000000000e+02 9.571257785288493636e-02
5.410000000000000000e+02 1.126785758586117125e-01
5.420000000000000000e+02 1.179835774444093766e-01
5.470000000000000000e+02 1.152256554998986882e-01
5.480000000000000000e+02 1.081546856894708697e-01
5.490000000000000000e+02 1.205234183510372481e-01
5.520000000000000000e+02 1.176456362517864507e-01
5.560000000000000000e+02 1.056159407620794327e-01
5.590000000000000000e+02 1.121092313899705872e-01
5.600000000000000000e+02 1.172291439068425395e-01
5.610000000000000000e+02 1.037017001013457035e-01
5.620000000000000000e+02 1.093115730029555893e-01
5.650000000000000000e+02 1.232364904936637529e-01
5.720000000000000000e+02 1.169051621901511795e-01
5.730000000000000000e+02 1.142540510859618996e-01
5.740000000000000000e+02 1.272858042095557640e-01
5.750000000000000000e+02 1.206089498898780393e-01
5.780000000000000000e+02 1.180055680178144079e-01
5.820000000000000000e+02 1.091809616669078414e-01
5.840000000000000000e+02 1.147272524266448324e-01
5.850000000000000000e+02 1.153622753647074450e-01
5.860000000000000000e+02 1.068050578860789690e-01
5.870000000000000000e+02 1.035891813506939346e-01
5.880000000000000000e+02 1.232978452868846164e-01
5.910000000000000000e+02 1.120197290803111589e-01
5.920000000000000000e+02 1.203692555664331171e-01
5.930000000000000000e+02 1.083671524657077168e-01
5.940000000000000000e+02 1.079202361785586151e-01
5.970000000000000000e+02 1.237955082437713072e-01
5.980000000000000000e+02 1.252086942801436398e-01
5.990000000000000000e+02 1.158037939284996681e-01
6.020000000000000000e+02 1.049637536255351722e-01
6.040000000000000000e+02 1.010160798457472586e-01
6.050000000000000000e+02 1.260720485999078377e-01
6.070000000000000000e+02 1.059190405523746936e-01
6.110000000000000000e+02 1.186282854679487353e-01
6.120000000000000000e+02 1.219478410874638152e-01
6.130000000000000000e+02 1.152911094277266069e-01
6.140000000000000000e+02 1.239545240533714981e-01
6.180000000000000000e+02 1.222205847390069461e-01
6.190000000000000000e+02 1.158922003796625105e-01
6.200000000000000000e+02 1.180330703845544060e-01
6.220000000000000000e+02 1.085396440202106016e-01
6.270000000000000000e+02 -1.017277260841065734e-01
6.290000000000000000e+02 -8.852230962703380723e-02
6.300000000000000000e+02 -1.166598836902395520e-01
6.330000000000000000e+02 -1.089047790956808315e-01
6.340000000000000000e+02 -1.113704632779497633e-01
6.360000000000000000e+02 -1.082229745898017625e-01
6.380000000000000000e+02 -1.034711817578308907e-01
6.390000000000000000e+02 -1.071554441297874194e-01
6.400000000000000000e+02 -9.856505550261268622e-02
6.410000000000000000e+02 -1.167862152124698599e-01
6.420000000000000000e+02 -1.139179434898001941e-01
6.430000000000000000e+02 -1.007145415465801608e-01
6.440000000000000000e+02 -1.227538427392300263e-01
6.450000000000000000e+02 -1.076045004283885803e-01
6.460000000000000000e+02 -1.149333029759927044e-01
6.480000000000000000e+02 -1.115900019769153484e-01
6.510000000000000000e+02 -1.095367406357166118e-01
6.560000000000000000e+02 -1.337263320579233916e-01
6.570000000000000000e+02 -1.155006786515555134e-01
6.580000000000000000e+02 -1.001318290090548457e-01
6.590000000000000000e+02 -1.209151405239917154e-01
6.610000000000000000e+02 -1.205802407383612107e-01
6.630000000000000000e+02 -1.071833700352170238e-01
6.640000000000000000e+02 -1.062111431405027701e-01
6.650000000000000000e+02 -1.094423165077900995e-01
6.680000000000000000e+02 -1.043604523975101561e-01
6.690000000000000000e+02 -1.140069530819413368e-01
6.700000000000000000e+02 -1.086167520294638034e-01
6.720000000000000000e+02 -1.065304487691080271e-01
6.740000000000000000e+02 -1.107613037589918192e-01
6.770000000000000000e+02 -1.201777622978284360e-01
6.780000000000000000e+02 -1.134065424732115662e-01
6.800000000000000000e+02 -1.254528294578632075e-01
6.830000000000000000e+02 -1.084817402125685948e-01
6.880000000000000000e+02 -1.382732215254403041e-01
6.890000000000000000e+02 -1.213702200855059227e-01
6.900000000000000000e+02 -1.076180522554631425e-01
6.920000000000000000e+02 -1.117441677573021708e-01
6.970000000000000000e+02 -1.238963150308591832e-01
6.990000000000000000e+02 -1.155344681399089191e-01
7.000000000000000000e+02 -1.113281127558589517e-01
7.040000000000000000e+02 -1.143495992822639029e-01
7.060000000000000000e+02 -1.065010432897855464e-01
7.080000000000000000e+02 -9.555083708275419196e-02
7.090000000000000000e+02 -1.164109412015622014e-01
7.100000000000000000e+02 -1.058757077821782522e-01
7.120000000000000000e+02 -9.468796489544774320e-02
7.130000000000000000e+02 -1.184945540612444004e-01
7.140000000000000000e+02 -1.088260012978631702e-01
7.150000000000000000e+02 -1.012414940716440809e-01
7.180000000000000000e+02 -1.117599266746387709e-01
7.190000000000000000e+02 -1.083096377685945910e-01
7.200000000000000000e+02 -1.159879409818085350e-01
7.330000000000000000e+02 -1.057183797191182384e-01
7.340000000000000000e+02 -1.041314948276855779e-01
7.360000000000000000e+02 -1.085505294455774844e-01
7.390000000000000000e+02 -1.092412878845880064e-01
7.400000000000000000e+02 -8.682637952822558347e-02
7.410000000000000000e+02 -1.383771855830157327e-01
7.430000000000000000e+02 -1.048262715783346288e-01
7.450000000000000000e+02 -1.060455498663882973e-01
7.460000000000000000e+02 -1.096263072175032299e-01
7.520000000000000000e+02 1.009983977321781273e-01
7.550000000000000000e+02 1.135112708544702004e-01
7.600000000000000000e+02 1.198495393406734666e-01
7.660000000000000000e+02 1.186594031077050776e-01
7.670000000000000000e+02 1.232377724820284820e-01
7.680000000000000000e+02 1.186049537034332413e-01
7.760000000000000000e+02 1.088097738059068398e-01
7.770000000000000000e+02 1.252012976300314606e-01
7.800000000000000000e+02 1.236570199322132024e-01
7.810000000000000000e+02 9.937231912766407438e-02
7.820000000000000000e+02 9.888508566966397462e-02
7.830000000000000000e+02 1.225184042041601029e-01
7.840000000000000000e+02 8.833017810061641328e-02
7.850000000000000000e+02 1.029972197997177097e-01
7.860000000000000000e+02 1.001748471376139871e-01
7.870000000000000000e+02 1.201764577342194218e-01
7.900000000000000000e+02 9.645773895422214694e-02
7.910000000000000000e+02 1.120645442380040213e-01
7.920000000000000000e+02 9.717334780018477280e-02
7.950000000000000000e+02 1.266329523335164298e-01
7.960000000000000000e+02 1.251853853820989459e-01
8.000000000000000000e+02 1.141613810659755507e-01
8.010000000000000000e+02 1.135141427889704568e-01
8.030000000000000000e+02 1.088561593751875001e-01
8.040000000000000000e+02 1.029373501646724393e-01
8.050000000000000000e+02 1.139118764655779187e-01
8.060000000000000000e+02 1.215793948323202894e-01
8.070000000000000000e+02 1.097975323727546082e-01
8.080000000000000000e+02 1.183658918875930832e-01
8.100000000000000000e+02 1.177022945323487613e-01
8.120000000000000000e+02 9.941580747235823079e-02
8.140000000000000000e+02 1.121713109682440229e-01
8.150000000000000000e+02 1.071712102823840912e-01
8.160000000000000000e+02 1.302709043731899441e-01
8.200000000000000000e+02 1.096018545605680489e-01
8.220000000000000000e+02 1.012819034513616906e-01
8.290000000000000000e+02 1.048137097495255993e-01
8.310000000000000000e+02 1.124009322640766584e-01
8.320000000000000000e+02 1.053432575431530738e-01
8.350000000000000000e+02 1.131094741354489591e-01
8.410000000000000000e+02 1.107306368211416897e-01
8.440000000000000000e+02 1.062782496364130386e-01
8.460000000000000000e+02 1.074435249939589554e-01
8.470000000000000000e+02 1.192355328459031305e-01
8.480000000000000000e+02 9.924321450326537009e-02
8.490000000000000000e+02 1.121533329613117053e-01
8.500000000000000000e+02 1.128443949083509784e-01
8.510000000000000000e+02 1.158419886510490271e-01
8.520000000000000000e+02 1.342779900411257832e-01
8.530000000000000000e+02 1.148548641392564268e-01
8.540000000000000000e+02 1.115108477134080234e-01
8.580000000000000000e+02 1.273049134358747725e-01
8.590000000000000000e+02 1.072555734040521042e-01
8.600000000000000000e+02 1.138997527338253546e-01
8.620000000000000000e+02 9.556066461458115335e-02
8.660000000000000000e+02 1.258835398261054228e-01
8.680000000000000000e+02 1.098136911302899504e-01
8.710000000000000000e+02 1.236337682685394040e-01
8.720000000000000000e+02 1.161251872911186200e-01
8.800000000000000000e+02 -1.115237775032369982e-01
8.820000000000000000e+02 -1.042754755060051886e-01
8.850000000000000000e+02 -1.166436156207705799e-01
8.870000000000000000e+02 -1.231085538165475751e-01
8.910000000000000000e+02 -1.105463254103032367e-01
8.920000000000000000e+02 -1.073840653272696566e-01
8.930000000000000000e+02 -1.085669506343907298e-01
8.940000000000000000e+02 -1.279706975415736414e-01
8.950000000000000000e+02 -1.094894961157270585e-01
8.960000000000000000e+02 -1.159292422449198917e-01
8.970000000000000000e+02 -1.241163490980290718e-01
8.980000000000000000e+02 -9.063130034368513388e-02
8.990000000000000000e+02 -1.022462312983468263e-01
9.000000000000000000e+02 -1.109404920117366133e-01
9.020000000000000000e+02 -1.138033795210869892e-01
9.060000000000000000e+02 -1.104424708983357817e-01
9.070000000000000000e+02 -1.126430286691434413e-01
9.080000000000000000e+02 -1.102698918557216967e-01
9.110000000000000000e+02 -9.944445141814475808e-02
9.120000000000000000e+02 -1.291782552243351256e-01
9.130000000000000000e+02 -1.131694687383831277e-01
9.140000000000000000e+02 -1.099616864835473717e-01
9.150000000000000000e+02 -1.070983534315033958e-01
9.170000000000000000e+02 -1.170401474022022825e-01
9.180000000000000000e+02 -1.082699714679921377e-01
9.200000000000000000e+02 -1.161484081928285117e-01
9.220000000000000000e+02 -1.171596642282955875e-01
9.230000000000000000e+02 -1.157988508241989400e-01
9.250000000000000000e+02 -1.087153345370763247e-01
9.260000000000000000e+02 -1.115303691759820803e-01
9.270000000000000000e+02 -1.061755319116856888e-01
9.290000000000000000e+02 -1.021482636227075413e-01
9.300000000000000000e+02 -1.262567632441713161e-01
9.320000000000000000e+02 -1.381602038059821513e-01
9.330000000000000000e+02 -1.147454577732217040e-01
9.340000000000000000e+02 -1.223468426083360039e-01
9.350000000000000000e+02 -1.008995719587372497e-01
9.370000000000000000e+02 -1.119940336593644725e-01
9.390000000000000000e+02 -1.205834069379141948e-01
9.400000000000000000e+02 -1.117292485428685034e-01
9.440000000000000000e+02 -1.085408505257140083e-01
9.450000000000000000e+02 -9.833952389321898302e-02
9.510000000000000000e+02 -1.265528078144944613e-01
9.550000000000000000e+02 -1.203262030525523441e-01
9.580000000000000000e+02 -1.223498777391846259e-01
9.610000000000000000e+02 -1.167977875179353475e-01
9.620000000000000000e+02 -1.209628075090216082e-01
9.660000000000000000e+02 -1.118138817987977401e-01
9.670000000000000000e+02 -1.101367048663486337e-01
9.680000000000000000e+02 -1.163605898898803365e-01
9.700000000000000000e+02 -1.280922046094464251e-01
9.730000000000000000e+02 -9.367422501698047244e-02
9.740000000000000000e+02 -1.200788917819917562e-01
9.770000000000000000e+02 -1.016430622419294272e-01
9.830000000000000000e+02 -1.131946762475159185e-01
9.840000000000000000e+02 -1.178902093319545707e-01
9.860000000000000000e+02 -1.189219566501406727e-01
9.870000000000000000e+02 -1.089358052241223562e-01
9.900000000000000000e+02 -1.211556069994963458e-01
9.960000000000000000e+02 -1.132610926656914263e-01
1.000000000000000000e+03 9.317688270412592677e-02
1.001000000000000000e+03 1.244666849111393525e-01
1.003000000000000000e+03 1.149846789874705844e-01
1.004000000000000000e+03 1.192066161191794177e-01
1.008000000000000000e+03 1.166937021072274316e-01
1.012000000000000000e+03 1.181087519296435129e-01
1.014000000000000000e+03 1.137677362563755401e-01
1.017000000000000000e+03 1.035565715859832064e-01
1.018000000000000000e+03 1.065992739957406510e-01
1.019000000000000000e+03 1.171057684838397034e-01
1.020000000000000000e+03 1.034625716720240785e-01
1.021000000000000000e+03 1.088279415446959109e-01
1.024000000000000000e+03 1.119617453420757858e-01
1.025000000000000000e+03 1.138054844863486542e-01
1.026000000000000000e+03 1.074537523532770183e-01
1.027000000000000000e+03 1.098343234335024121e-01
1.029000000000000000e+03 1.045778147633900784e-01
1.032000000000000000e+03 1.034751593722330748e-01
1.033000000000000000e+03 1.214440324480815930e-01
1.034000000000000000e+03 1.075626197713096394e-01
1.035000000000000000e+03 1.242905419724050636e-01
1.038000000000000000e+03 1.130681786409297729e-01
1.039000000000000000e+03 1.187909339426029276e-01
1.040000000000000000e+03 1.161006480153014275e-01
1.042000000000000000e+03 1.073509205612444839e-01
1.043000000000000000e+03 1.244135906848651690e-01
1.044000000000000000e+03 1.097811936481039585e-01
1.045000000000000000e+03 1.299680702861670811e-01
1.048000000000000000e+03 1.124881011547976678e-01
1.049000000000000000e+03 9.451124339657354656e-02
1.050000000000000000e+03 1.091796922210170884e-01
1.051000000000000000e+03 9.801042414353641763e-02
1.053000000000000000e+03 1.230129244093047663e-01
1.056000000000000000e+03 1.245168811175981355e-01
1.057000000000000000e+03 1.062731508309646966e-01
1.059000000000000000e+03 1.020808709850198476e-01
1.060000000000000000e+03 1.033657394820239883e-01
1.061000000000000000e+03 1.076413281600664268e-01
1.062000000000000000e+03 1.078463946970831810e-01
1.064000000000000000e+03 1.104366930542182990e-01
1.065000000000000000e+03 1.186424923393444575e-01
1.066000000000000000e+03 1.147136013450801573e-01
1.068000000000000000e+03 9.711121769865443953e-02
1.069000000000000000e+03 9.064847664321484810e-02
1.071000000000000000e+03 1.013183411974128978e-01
1.072000000000000000e+03 1.295544715893978960e-01
1.073000000000000000e+03 1.085505924065434946e-01
1.074000000000000000e+03 1.200073805668662036e-01
1.075000000000000000e+03 1.022101125671716210e-01
1.077000000000000000e+03 1.262732567661031258e-01
1.079000000000000000e+03 1.143789254731871763e-01
1.082000000000000000e+03 1.269122204824934541e-01
1.083000000000000000e+03 1.034616671338753346e-01
1.084000000000000000e+03 1.301304985991253993e-01
1.085000000000000000e+03 1.031533080126731672e-01
1.090000000000000000e+03 1.266388874522991759e-01
1.094000000000000000e+03 1.119472657878668870e-01
1.096000000000000000e+03 1.168167570340702399e-01
1.098000000000000000e+03 1.236837901533326262e-01
1.101000000000000000e+03 1.182892909460154796e-01
1.102000000000000000e+03 1.113974213568040689e-01
1.103000000000000000e+03 1.152134640365657381e-01
1.105000000000000000e+03 9.635686115450706191e-02
1.107000000000000000e+03 1.081854335384664495e-01
1.108000000000000000e+03 1.188804931860455993e-01
1.111000000000000000e+03 1.122067475206125209e-01
1.112000000000000000e+03 1.181160864981501413e-01
1.113000000000000000e+03 1.110704768360927241e-01
1.114000000000000000e+03 1.057773623290715337e-01
1.115000000000000000e+03 1.033055513834875982e-01
1.116000000000000000e+03 1.225678485494070824e-01
1.118000000000000000e+03 1.055998854005846394e-01
1.119000000000000000e+03 9.830316807743466612e-02
1.120000000000000000e+03 1.181538172759513394e-01
1.122000000000000000e+03 1.208110202628216862e-01
1.125000000000000000e+03 -1.229364129537944550e-01
1.126000000000000000e+03 -1.078428709732140445e-01
1.133000000000000000e+03 -9.151521138257309729e-02
1.135000000000000000e+03 -1.262589310289033984e-01
1.136000000000000000e+03 -1.219798531429384381e-01
1.140000000000000000e+03 -1.273073827566523764e-01
1.142000000000000000e+03 -1.086786497340806457e-01
1.145000000000000000e+03 -1.274032841780823877e-01
1.147000000000000000e+03 -1.217412419712104038e-01
1.150000000000000000e+03 -1.105013725396083724e-01
1.151000000000000000e+03 -1.222816137902484473e-01
1.152000000000000000e+03 -1.183181673706870662e-01
1.153000000000000000e+03 -1.212571478511446782e-01
1.158000000000000000e+03 -1.130128897229551732e-01
1.162000000000000000e+03 -1.133821612999752204e-01
1.163000000000000000e+03 -1.133932064275700591e-01
1.164000000000000000e+03 -1.285393453495018434e-01
1.165000000000000000e+03 -1.150480347724718577e-01
1.167000000000000000e+03 -1.107566553376808510e-01
1.168000000000000000e+03 -1.020165286125052917e-01
1.171000000000000000e+03 -9.517181072357400184e-02
1.172000000000000000e+03 -1.180898264981170842e-01
1.174000000000000000e+03 -1.139723900987209271e-01
1.175000000000000000e+03 -1.089230763142127051e-01
1.178000000000000000e+03 -8.668347000486460729e-02
1.179000000000000000e+03 -1.103866709048489936e-01
1.180000000000000000e+03 -1.227786902991579582e-01
1.183000000000000000e+03 -1.081922477954253836e-01
1.185000000000000000e+03 -1.054709246266346545e-01
1.186000000000000000e+03 -1.105019352613182820e-01
1.187000000000000000e+03 -1.263857367911671303e-01
1.191000000000000000e+03 -9.428718499018286237e-02
1.192000000000000000e+03 -9.284312922240098298e-02
1.194000000000000000e+03 -1.129899310117327416e-01
1.195000000000000000e+03 -1.034892602285649305e-01
1.197000000000000000e+03 -1.018007200000333040e-01
1.198000000000000000e+03 -1.026203502053770339e-01
1.200000000000000000e+03 -1.301156920503159509e-01
1.202000000000000000e+03 -1.238632924613085468e-01
1.203000000000000000e+03 -1.178518317324069309e-01
1.206000000000000000e+03 -1.133422902687161171e-01
1.209000000000000000e+03 -9.757200903223975375e-02
1.210000000000000000e+03 -9.292728112446001221e-02
1.211000000000000000e+03 -1.095444953640361679e-01
1.213000000000000000e+03 -1.191461016517663118e-01
1.215000000000000000e+03 -1.012994057757886646e-01
1.216000000000000000e+03 -1.225123627519933422e-01
1.221000000000000000e+03 -1.145286825288057975e-01
1.226000000000000000e+03 -1.064304175535295133e-01
1.229000000000000000e+03 -1.013231234729965458e-01
1.233000000000000000e+03 -1.171179572071497643e-01
1.236000000000000000e+03 -1.079872787528449452e-01
1.237000000000000000e+03 -1.211068619251203793e-01
1.239000000000000000e+03 -1.117463559081567498e-01
1.240000000000000000e+03 -1.293308414120004635e-01
1.242000000000000000e+03 -1.175597052571286938e-01
1.244000000000000000e+03 -1.000601793151264796e-01
1.246000000000000000e+03 -1.224868977135810943e-01
1.249000000000000000e+03 -1.047066955438008540e-01
1.250000000000000000e+03 1.163909254492977580e-01
1.251000000000000000e+03 1.044433267636221269e-01
1.252000000000000000e+03 8.873143909976734245e-02
1.253000000000000000e+03 1.225437834729571213e-01
1.255000000000000000e+03 1.155287999631680607e-01
1.259000000000000000e+03 9.842743983178128819e-02
1.260000000000000000e+03 1.066844172609316133e-01
1.261000000000000000e+03 1.143239496323144450e-01
1.265000000000000000e+03 1.241317883865971916e-01
1.266000000000000000e+03 1.352293151540283067e-01
1.269000000000000000e+03 1.032048317015024502e-01
1.270000000000000000e+03 1.183096658575243099e-01
1.272000000000000000e+03 1.237721503584183480e-01
1.274000000000000000e+03 1.046400853647927870e-01
1.276000000000000000e+03 1.124539035530566361e-01
1.278000000000000000e+03 1.213267275254254901e-01
1.287000000000000000e+03 1.064569805472547481e-01
1.288000000000000000e+03 1.220146794115959527e-01
1.290000000000000000e+03 1.340375605796572112e-01
1.292000000000000000e+03 1.369347174513332321e-01
1.295000000000000000e+03 9.037113406717037223e-02
1.297000000000000000e+03 1.181859951160645905e-01
1.300000000000000000e+03 1.075476035554602805e-01
1.302000000000000000e+03 1.020836161903847933e-01
1.303000000000000000e+03 1.093140114038266969e-01
1.304000000000000000e+03 9.808004673103175308e-02
1.305000000000000000e+03 9.852330680642451544e-02
1.306000000000000000e+03 1.106637141832051280e-01
1.307000000000000000e+03 9.905581439746005690e-02
1.308000000000000000e+03 1.156703456326813317e-01
1.309000000000000000e+03 1.127362052006629645e-01
1.310000000000000000e+03 1.273357959389593286e-01
1.311000000000000000e+03 1.168129601726943662e-01
1.312000000000000000e+03 1.203301314346816864e-01
1.314000000000000000e+03 9.146009821773885828e-02
1.315000000000000000e+03 1.115036410801003575e-01
1.316000000000000000e+03 1.071734730420272896e-01
1.322000000000000000e+03 1.107862414290295694e-01
1.324000000000000000e+03 1.156774409051317398e-01
1.327000000000000000e+03 1.132519739188847102e-01
1.328000000000000000e+03 1.134303554204982717e-01
1.331000000000000000e+03 1.089196322505765202e-01
1.333000000000000000e+03 1.159806416500172577e-01
1.339000000000000000e+03 1.101816962588913207e-01
1.340000000000000000e+03 1.088302326010466559e-01
1.343000000000000000e+03 1.115086596468878033e-01
1.346000000000000000e+03 1.143240408111656226e-01
1.347000000000000000e+03 1.239171914210337733e-01
1.348000000000000000e+03 1.243529886716882721e-01
1.352000000000000000e+03 1.092950345289400993e-01
1.353000000000000000e+03 1.041708523794901975e-01
1.354000000000000000e+03 9.970079466036406435e-02
1.355000000000000000e+03 1.066009147570663312e-01
1.356000000000000000e+03 1.207906257286338048e-01
1.357000000000000000e+03 1.301620772046320484e-01
1.366000000000000000e+03 1.081247288007182589e-01
1.368000000000000000e+03 1.057872449043050500e-01
1.371000000000000000e+03 1.079391595548089416e-01
1.372000000000000000e+03 1.131688980188119142e-01
1.374000000000000000e+03 1.013303537325371401e-01
1.376000000000000000e+03 -1.095078810808414460e-01
1.379000000000000000e+03 -1.124964452620787203e-01
1.380000000000000000e+03 -1.240082845232024777e-01
1.381000000000000000e+03 -1.219146219208281368e-01
1.384000000000000000e+03 -1.094530733590790006e-01
1.386000000000000000e+03 -1.002350105806570774e-01
1.387000000000000000e+03 -1.148069528345614931e-01
1.388000000000000000e+03 -1.084472847362452919e-01
1.389000000000000000e+03 -1.164000483294666682e-01
1.398000000000000000e+03 -1.118234285720864640e-01
1.401000000000000000e+03 -1.166995218256619421e-01
1.403000000000000000e+03 -1.117079725105579735e-01
1.404000000000000000e+03 -1.156021485270654903e-01
1.405000000000000000e+03 -1.075231858265313228e-01
1.409000000000000000e+03 -1.192196027687825177e-01
1.410000000000000000e+03 -1.129968831903266913e-01
1.411000000000000000e+03 -1.273639990483097506e-01
1.412000000000000000e+03 -1.129547307367169962e-01
1.414000000000000000e+03 -1.120285298782547484e-01
1.417000000000000000e+03 -1.070284717983110007e-01
1.418000000000000000e+03 -1.230055362476048658e-01
1.423000000000000000e+03 -1.133052115252237979e-01
1.424000000000000000e+03 -1.096045132569085367e-01
1.425000000000000000e+03 -1.188956440803344283e-01
1.427000000000000000e+03 -1.179485351637694079e-01
1.430000000000000000e+03 -1.278657770496820500e-01
1.431000000000000000e+03 -1.282384500097966673e-01
1.436000000000000000e+03 -1.032061339572479808e-01
1.439000000000000000e+03 -1.203769547499217996e-01
1.440000000000000000e+03 -1.138030658567939363e-01
1.441000000000000000e+03 -1.099834277291386331e-01
1.444000000000000000e+03 -1.062511069314158729e-01
1.448000000000000000e+03 -9.949503683949120769e-02
1.449000000000000000e+03 -1.077122537881829711e-01
1.452000000000000000e+03 -1.099399768558064761e-01
1.453000000000000000e+03 -1.144704129621143818e-01
1.454000000000000000e+03 -1.221171308155702684e-01
1.456000000000000000e+03 -1.148904193506649907e-01
1.458000000000000000e+03 -1.161441940042631793e-01
1.462000000000000000e+03 -1.241150820359443047e-01
1.467000000000000000e+03 -1.017300752838527500e-01
1.468000000000000000e+03 -1.151951553052485422e-01
1.470000000000000000e+03 -1.120713704941719568e-01
1.471000000000000000e+03 -1.351086451693734314e-01
1.472000000000000000e+03 -1.087803616895709341e-01
1.473000000000000000e+03 -1.272634437536164786e-01
1.474000000000000000e+03 -1.256910134880104002e-01
1.475000000000000000e+03 -1.317618580476381807e-01
1.479000000000000000e+03 -1.197014269547087006e-01
1.481000000000000000e+03 -1.216100835716143330e-01
1.482000000000000000e+03 -9.275962787047334346e-02
1.483000000000000000e+03 -1.132410204279096222e-01
1.485000000000000000e+03 -1.056823470438860990e-01
1.487000000000000000e+03 -1.018521988391187794e-01
1.488000000000000000e+03 -1.193337751480314235e-01
1.490000000000000000e+03 -9.694882922248207469e-02
1.494000000000000000e+03 -1.125094597878872477e-01
1.495000000000000000e+03 -1.045554720478860111e-01
1.497000000000000000e+03 -1.262659846669938191e-01
1.498000000000000000e+03 -1.134924437613987064e-01
1.509000000000000000e+03 1.170609864354508339e-01
1.512000000000000000e+03 9.102511393466337919e-02
1.513000000000000000e+03 1.080538087846200923e-01
1.521000000000000000e+03 1.060001146417392515e-01
1.528000000000000000e+03 1.080074174195984199e-01
1.529000000000000000e+03 1.075542680256206252e-01
1.531000000000000000e+03 1.100377227890535908e-01
1.534000000000000000e+03 9.913081951642589706e-02
1.536000000000000000e+03 1.221885571060702391e-01
1.537000000000000000e+03 1.305682931684530312e-01
1.538000000000000000e+03 1.036892829077515760e-01
1.540000000000000000e+03 1.189074335646390368e-01
1.542000000000000000e+03 9.903029147789180198e-02
1.543000000000000000e+03 9.885480882403639702e-02
1.545000000000000000e+03 1.028632459965596047e-01
1.546000000000000000e+03 1.140297834374527502e-01
1.548000000000000000e+03 1.051257204512020677e-01
1.549000000000000000e+03 1.151019145509494246e-01
1.550000000000000000e+03 1.210737058556765611e-01
1.551000000000000000e+03 1.161309572581145644e-01
1.552000000000000000e+03 1.268350889456341113e-01
1.554000000000000000e+03 1.182561783896162039e-01
1.557000000000000000e+03 1.278243753898428703e-01
1.561000000000000000e+03 1.161217127186204845e-01
1.563000000000000000e+03 1.075293354411206992e-01
1.564000000000000000e+03 1.189737755426236859e-01
1.566000000000000000e+03 1.177229454200494491e-01
1.570000000000000000e+03 1.129127134255561993e-01
1.574000000000000000e+03 1.119292556221857804e-01
1.575000000000000000e+03 1.049150167076163265e-01
1.576000000000000000e+03 1.226640136803056613e-01
1.577000000000000000e+03 9.099445274983600229e-02
1.579000000000000000e+03 1.028101129458859897e-01
1.580000000000000000e+03 1.194434862325282343e-01
1.582000000000000000e+03 1.250221523908554844e-01
1.584000000000000000e+03 9.671426204441593844e-02
1.587000000000000000e+03 1.089036725524349936e-01
1.588000000000000000e+03 1.025904310492523341e-01
1.592000000000000000e+03 1.099850614950344113e-01
1.597000000000000000e+03 1.102586754964019616e-01
1.600000000000000000e+03 1.158995241958095668e-01
1.601000000000000000e+03 1.045299269789082275e-01
1.602000000000000000e+03 1.161258720772706671e-01
1.604000000000000000e+03 1.006448433762656136e-01
1.606000000000000000e+03 1.359442235010023536e-01
1.607000000000000000e+03 1.146634629174732301e-01
1.608000000000000000e+03 9.394019795525304639e-02
1.609000000000000000e+03 1.142209490480000506e-01
1.610000000000000000e+03 1.023945917982292952e-01
1.611000000000000000e+03 1.076900080645246116e-01
1.616000000000000000e+03 1.284417513964360991e-01
1.617000000000000000e+03 1.255356113022398357e-01
1.621000000000000000e+03 1.025898071522008681e-01
1.623000000000000000e+03 1.059739072154964601e-01
1.625000000000000000e+03 -1.076363376876886546e-01
1.628000000000000000e+03 -1.168434798914960576e-01
1.630000000000000000e+03 -1.046613711721401940e-01
1.631000000000000000e+03 -8.379919892210353771e-02
1.632000000000000000e+03 -1.089361787860649716e-01
1.633000000000000000e+03 -1.093208206233809987e-01
1.634000000000000000e+03 -1.107701248066161603e-01
1.638000000000000000e+03 -1.092266531997511947e-01
1.639000000000000000e+03 -8.885038394145478025e-02
1.640000000000000000e+03 -1.152590683617439465e-01
1.641000000000000000e+03 -1.140346566991609911e-01
1.645000000000000000e+03 -1.065133683806826215e-01
1.646000000000000000e+03 -1.163664605341299396e-01
1.647000000000000000e+03 -1.070235144468053429e-01
1.649000000000000000e+03 -1.161075352934562432e-01
1.652000000000000000e+03 -1.141445695409858130e-01
1.654000000000000000e+03 -1.259066848734266553e-01
1.660000000000000000e+03 -1.241612991901154539e-01
1.661000000000000000e+03 -1.026575124698012875e-01
1.663000000000000000e+03 -1.101944936734260833e-01
1.664000000000000000e+03 -1.153716152938602524e-01
1.665000000000000000e+03 -8.308582000300200610e-02
1.666000000000000000e+03 -1.249913881053716924e-01
1.667000000000000000e+03 -1.068906954813722832e-01
1.669000000000000000e+03 -1.261460436822454678e-01
1.670000000000000000e+03 -1.141022856462903246e-01
1.672000000000000000e+03 -1.291408433327875527e-01
1.674000000000000000e+03 -1.058679788757646706e-01
1.675000000000000000e+03 -1.206537847939197494e-01
1.676000000000000000e+03 -1.112335125491122068e-01
1.678000000000000000e+03 -1.225415020554831841e-01
1.679000000000000000e+03 -1.058093493690068498e-01
1.680000000000000000e+03 -1.269144776725480983e-01
1.681000000000000000e+03 -1.077958249907523952e-01
1.682000000000000000e+03 -1.093782408499212322e-01
1.684000000000000000e+03 -1.365993415085009488e-01
1.688000000000000000e+03 -1.277871196349502358e-01
1.689000000000000000e+03 -1.162740121652178632e-01
1.693000000000000000e+03 -1.240202374596538759e-01
1.696000000000000000e+03 -1.053231358124978034e-01
1.697000000000000000e+03 -1.077986541972865975e-01
1.698000000000000000e+03 -1.250717354881039634e-01
1.700000000000000000e+03 -1.146799391300634546e-01
1.704000000000000000e+03 -1.091738190127776592e-01
1.706000000000000000e+03 -1.154689781613833233e-01
1.709000000000000000e+03 -1.053433462751021121e-01
1.711000000000000000e+03 -1.187048926486828637e-01
1.713000000000000000e+03 -1.021055703501351636e-01
1.716000000000000000e+03 -1.154451738833712632e-01
1.717000000000000000e+03 -1.233457700071667051e-01
1.718000000000000000e+03 -1.056427486138284411e-01
1.719000000000000000e+03 -1.095993013187898102e-01
1.720000000000000000e+03 -1.194465696073012256e-01
1.728000000000000000e+03 -1.110594803377797785e-01
1.729000000000000000e+03 -1.100638040397219214e-01
1.732000000000000000e+03 -9.102438317543966317e-02
1.733000000000000000e+03 -1.088392710564401178e-01
1.734000000000000000e+03 -1.050117348155079622e-01
1.735000000000000000e+03 -1.036399121287644720e-01
1.738000000000000000e+03 -1.076386249967224984e-01
1.739000000000000000e+03 -1.094590864422167742e-01
1.740000000000000000e+03 -1.070305264065183476e-01
1.742000000000000000e+03 -1.074164035607999418e-01
1.743000000000000000e+03 -1.097896142769687056e-01
1.746000000000000000e+03 -1.092860213278321196e-01
1.747000000000000000e+03 -1.062833499676607840e-01
1.748000000000000000e+03 -1.111998336452777181e-01
1.749000000000000000e+03 -1.141718434330936671e-01
1.752000000000000000e+03 1.009952988914980115e-01
1.753000000000000000e+03 1.109625093496601766e-01
1.755000000000000000e+03 1.186450614083984778e-01
1.757000000000000000e+03 1.015832526160120042e-01
1.759000000000000000e+03 1.244379429395760239e-01
1.764000000000000000e+03 1.078655226576788057e-01
1.767000000000000000e+03 1.037586823944008918e-01
1.768000000000000000e+03 1.032726066293667977e-01
1.769000000000000000e+03 1.259370475250484733e-01
1.770000000000000000e+03 1.152071113699773552e-01
1.772000000000000000e+03 1.112210486697149669e-01
1.773000000000000000e+03 1.111380115526518220e-01
1.775000000000000000e+03 1.098286836741345085e-01
1.776000000000000000e+03 1.040644333835372137e-01
1.778000000000000000e+03 1.115554255532878458e-01
1.779000000000000000e+03 1.092088418783174475e-01
1.783000000000000000e+03 1.023545855727161225e-01
1.787000000000000000e+03 1.144041005173631886e-01
1.791000000000000000e+03 1.115998847015939183e-01
1.792000000000000000e+03 1.259619579090524022e-01
1.794000000000000000e+03 1.201673009950145893e-01
1.796000000000000000e+03 1.032421633877771000e-01
1.797000000000000000e+03 1.092209349152210157e-01
1.798000000000000000e+03 1.243678838002123394e-01
1.799000000000000000e+03 1.232874780828641936e-01
1.800000000000000000e+03 1.251078347997577334e-01
1.804000000000000000e+03 1.058515964093454942e-01
1.805000000000000000e+03 1.096921242635545135e-01
1.806000000000000000e+03 1.019319561453623374e-01
1.809000000000000000e+03 1.025058155280573341e-01
1.812000000000000000e+03 1.092356791189539461e-01
1.814000000000000000e+03 1.093104809330717742e-01
1.816000000000000000e+03 1.211361882964343967e-01
1.817000000000000000e+03 1.044671939217156620e-01
1.819000000000000000e+03 1.071418636703227178e-01
1.820000000000000000e+03 1.138544811530239897e-01
1.823000000000000000e+03 1.088437717848286107e-01
1.824000000000000000e+03 1.101050999775088080e-01
1.825000000000000000e+03 1.110279618475617236e-01
1.826000000000000000e+03 1.153263500802919755e-01
1.829000000000000000e+03 1.001894627042371755e-01
1.830000000000000000e+03 1.026920331888253740e-01
1.833000000000000000e+03 1.046351071883593609e-01
1.836000000000000000e+03 1.121168151177363015e-01
1.837000000000000000e+03 1.165103309705048384e-01
1.839000000000000000e+03 1.128302598897860942e-01
1.840000000000000000e+03 1.071526973225837009e-01
1.842000000000000000e+03 1.142906438089042187e-01
1.844000000000000000e+03 1.131907632713962941e-01
1.847000000000000000e+03 1.165491149543149002e-01
1.850000000000000000e+03 1.185105849593638822e-01
1.852000000000000000e+03 1.162408844823822340e-01
1.853000000000000000e+03 1.050611321479764382e-01
1.855000000000000000e+03 1.228476491763211137e-01
1.857000000000000000e+03 8.955468746136377445e-02
1.858000000000000000e+03 1.110522952678776598e-01
1.859000000000000000e+03 1.249138954746405877e-01
1.860000000000000000e+03 1.045175242426390205e-01
1.864000000000000000e+03 1.053183512040283820e-01
1.867000000000000000e+03 1.077497696573156555e-01
1.868000000000000000e+03 1.249271050371007358e-01
1.869000000000000000e+03 1.060365979348876081e-01
1.870000000000000000e+03 1.071124209210183309e-01
1.871000000000000000e+03 1.064676569668177031e-01
1.873000000000000000e+03 1.099403798298859702e-01
1.874000000000000000e+03 1.153466463464303815e-01
1.877000000000000000e+03 -1.199393379839187035e-01
1.878000000000000000e+03 -1.170845786461748306e-01
1.880000000000000000e+03 -1.025302006898799745e-01
1.882000000000000000e+03 -1.217174467692260231e-01
1.883000000000000000e+03 -1.174942162385627931e-01
1.885000000000000000e+03 -1.150487900697809152e-01
1.886000000000000000e+03 -1.168757363235782970e-01
1.887000000000000000e+03 -1.404394241165320134e-01
1.890000000000000000e+03 -1.112334466614326167e-01
1.891000000000000000e+03 -1.110843487097895321e-01
1.892000000000000000e+03 -1.034343091312694141e-01
1.893000000000000000e+03 -1.081868474143696385e-01
1.894000000000000000e+03 -1.073855309639412392e-01
1.895000000000000000e+03 -1.141195594084757070e-01
1.899000000000000000e+03 -1.413904666192226101e-01
1.901000000000000000e+03 -9.810969229922053558e-02
1.902000000000000000e+03 -1.150194261385807659e-01
1.905000000000000000e+03 -1.081439725446707995e-01
1.908000000000000000e+03 -9.023972988160464115e-02
1.915000000000000000e+03 -1.072770255864453348e-01
1.916000000000000000e+03 -1.126683959666578416e-01
1.918000000000000000e+03 -1.165390751336755626e-01
1.919000000000000000e+03 -1.106393077684587334e-01
1.920000000000000000e+03 -1.255356002861210130e-01
1.923000000000000000e+03 -1.208147731256267871e-01
1.928000000000000000e+03 -9.870308844980385521e-02
1.930000000000000000e+03 -1.155197882764521511e-01
1.931000000000000000e+03 -1.186343668008538882e-01
1.932000000000000000e+03 -1.041629236777709966e-01
1.933000000000000000e+03 -1.162473778268972857e-01
1.936000000000000000e+03 -1.060605210333677301e-01
1.937000000000000000e+03 -1.070389048406159282e-01
1.939000000000000000e+03 -1.096756009910823948e-01
1.942000000000000000e+03 -1.010161529115794765e-01
1.944000000000000000e+03 -1.298042246679516898e-01
1.946000000000000000e+03 -1.001312185355503898e-01
1.947000000000000000e+03 -1.076310361374916702e-01
1.948000000000000000e+03 -9.244274711077341000e-02
1.949000000000000000e+03 -9.681239549690112689e-02
1.950000000000000000e+03 -1.027457117756401944e-01
1.951000000000000000e+03 -1.162204157695138629e-01
1.952000000000000000e+03 -1.187778260518031620e-01
1.955000000000000000e+03 -1.198460125531365938e-01
1.957000000000000000e+03 -1.051371197364124044e-01
1.962000000000000000e+03 -1.099507623414631152e-01
1.968000000000000000e+03 -1.144547952550645648e-01
1.969000000000000000e+03 -1.076426480881600700e-01
1.970000000000000000e+03 -1.135265837533846744e-01
1.978000000000000000e+03 -1.151904387652319395e-01
1.979000000000000000e+03 -1.131724135011617227e-01
1.980000000000000000e+03 -1.151543131398217318e-01
1.981000000000000000e+03 -9.377915890796112430e-02
1.983000000000000000e+03 -1.002945545190973148e-01
1.985000000000000000e+03 -1.073033462460140780e-01
1.988000000000000000e+03 -1.274337295230004996e-01
1.989000000000000000e+03 -1.193071931529611496e-01
1.990000000000000000e+03 -1.103995670449979538e-01
1.991000000000000000e+03 -1.208001790399631376e-01
1.992000000000000000e+03 -1.023581209559886185e-01
1.993000000000000000e+03 -1.060740098585811059e-01
1.995000000000000000e+03 -1.107325700144262959e-01
1.996000000000000000e+03 -1.198381108660746541e-01
1.997000000000000000e+03 -1.164657539049187007e-01
1.998000000000000000e+03 -1.094172891003482445e-01
1.999000000000000000e+03 -1.150863025795939021e-01
2.000000000000000000e+03 1.107774255181857986e-01
2.001000000000000000e+03 1.264154167744565016e-01
2.002000000000000000e+03 1.188790748358284910e-01
2.007000000000000000e+03 1.062705293295236469e-01
2.008000000000000000e+03 1.029471808179212855e-01
2.011000000000000000e+03 9.517575066199955580e-02
2.012000000000000000e+03 1.036018900691077216e-01
2.014000000000000000e+03 1.128895709264177705e-01
2.018000000000000000e+03 1.155456842212422841e-01
2.019000000000000000e+03 1.164766532087176260e-01
2.020000000000000000e+03 1.055373360898859830e-01
2.022000000000000000e+03 1.063705855653260812e-01
2.023000000000000000e+03 1.102341233976821544e-01
2.025000000000000000e+03 9.950802247599188632e-02
2.028000000000000000e+03 1.166263828446916367e-01
2.030000000000000000e+03 1.111383945296274822e-01
2.036000000000000000e+03 1.158005836208954309e-01
2.037000000000000000e+03 1.214128238434683954e-01
2.039000000000000000e+03 1.115149754566699541e-01
2.041000000000000000e+03 1.225290199469663277e-01
2.043000000000000000e+03 1.051033449858653213e-01
2.045000000000000000e+03 1.293412566251488094e-01
2.047000000000000000e+03 1.255507490032345963e-01
2.049000000000000000e+03 9.559970827498576185e-02
2.054000000000000000e+03 1.150708038873154704e-01
2.059000000000000000e+03 1.169570819339611767e-01
2.062000000000000000e+03 9.991941782963674468e-02
2.063000000000000000e+03 1.011089415682177861e-01
2.064000000000000000e+03 9.978809411701625165e-02
2.065000000000000000e+03 8.691810737244921869e-02
2.066000000000000000e+03 1.034589394519522948e-01
2.067000000000000000e+03 1.101458165999600614e-01
2.068000000000000000e+03 1.122612131844954730e-01
2.069000000000000000e+03 1.240244574837995190e-01
2.070000000000000000e+03 1.236537505984821456e-01
2.071000000000000000e+03 1.151463834534181274e-01
2.072000000000000000e+03 1.162770953862732604e-01
2.073000000000000000e+03 1.161047682793084346e-01
2.074000000000000000e+03 9.256607203286834618e-02
2.075000000000000000e+03 1.252507777952538426e-01
2.076000000000000000e+03 9.784573857847753131e-02
2.077000000000000000e+03 1.162713484422827070e-01
2.080000000000000000e+03 1.121568795355641357e-01
2.081000000000000000e+03 1.008452500808417612e-01
2.083000000000000000e+03 1.081068529935013262e-01
2.084000000000000000e+03 1.199704150654259949e-01
2.085000000000000000e+03 1.184912013121138252e-01
2.086000000000000000e+03 1.097120436357973405e-01
2.087000000000000000e+03 1.102964558509718362e-01
2.089000000000000000e+03 1.223370883341306364e-01
2.092000000000000000e+03 1.142786096497710319e-01
2.094000000000000000e+03 1.207954923546293718e-01
2.095000000000000000e+03 1.018891735557720252e-01
2.096000000000000000e+03 9.562410923688410835e-02
2.097000000000000000e+03 1.006269313842262925e-01
2.100000000000000000e+03 1.149341118367557951e-01
2.105000000000000000e+03 1.094989475168942628e-01
2.107000000000000000e+03 1.150176558418871398e-01
2.113000000000000000e+03 1.087735594020859536e-01
2.115000000000000000e+03 1.133208155044097970e-01
2.119000000000000000e+03 1.202360573065351379e-01
2.121000000000000000e+03 1.116755531497083120e-01
2.124000000000000000e+03 1.113878484447402423e-01
2.125000000000000000e+03 -1.152838773369964376e-01
2.128000000000000000e+03 -1.053999033645983685e-01
2.131000000000000000e+03 -1.121717846941588104e-01
2.133000000000000000e+03 -1.189999047309618363e-01
2.135000000000000000e+03 -1.149164200009755998e-01
2.136000000000000000e+03 -1.131326199305715541e-01
2.140000000000000000e+03 -1.028876455723676947e-01
2.141000000000000000e+03 -1.179012877739016307e-01
2.142000000000000000e+03 -1.146905030678700144e-01
2.144000000000000000e+03 -1.041344330160450388e-01
2.148000000000000000e+03 -1.076624724974304392e-01
2.149000000000000000e+03 -1.198300235864409868e-01
2.151000000000000000e+03 -1.040825216482940963e-01
2.152000000000000000e+03 -1.062397901601905698e-01
2.153000000000000000e+03 -1.065932563064580230e-01
2.156000000000000000e+03 -1.295680656546049914e-01
2.158000000000000000e+03 -1.088269662842074603e-01
2.162000000000000000e+03 -1.023029701197429864e-01
2.163000000000000000e+03 -1.174049615805506375e-01
2.166000000000000000e+03 -9.949252660262758452e-02
2.167000000000000000e+03 -9.916903098367516045e-02
2.170000000000000000e+03 -1.159469586542816594e-01
2.171000000000000000e+03 -1.127600024453632721e-01
2.173000000000000000e+03 -1.116037288389743198e-01
2.174000000000000000e+03 -1.021891379013250556e-01
2.175000000000000000e+03 -1.185430991224940139e-01
2.177000000000000000e+03 -1.269713390956069277e-01
2.179000000000000000e+03 -1.225055447332860509e-01
2.180000000000000000e+03 -1.171914782334110283e-01
2.181000000000000000e+03 -1.058082038140073511e-01
2.184000000000000000e+03 -1.096685332644842248e-01
2.185000000000000000e+03 -9.856931789664098720e-02
2.186000000000000000e+03 -1.066256403629237959e-01
2.188000000000000000e+03 -1.269837143098118126e-01
2.189000000000000000e+03 -1.185870646898802144e-01
2.190000000000000000e+03 -1.229659935918596680e-01
2.191000000000000000e+03 -1.303181675273320794e-01
2.192000000000000000e+03 -1.058489737373443373e-01
2.193000000000000000e+03 -1.224386348969931787e-01
2.194000000000000000e+03 -1.061315040939866117e-01
2.195000000000000000e+03 -1.058311611216011527e-01
2.198000000000000000e+03 -1.212328108580793123e-01
2.200000000000000000e+03 -1.321717954609860912e-01
2.203000000000000000e+03 -1.084806241173093683e-01
2.204000000000000000e+03 -1.148806296232808971e-01
2.206000000000000000e+03 -1.330428605190632219e-01
2.207000000000000000e+03 -1.133360656025013680e-01
2.208000000000000000e+03 -9.450462035726910071e-02
2.209000000000000000e+03 -1.276666146389769385e-01
2.210000000000000000e+03 -1.045199406538924181e-01
2.212000000000000000e+03 -1.143146785249379849e-01
2.214000000000000000e+03 -1.104856549828547307e-01
2.215000000000000000e+03 -1.200435908219226466e-01
2.216000000000000000e+03 -1.115905654360683508e-01
2.217000000000000000e+03 -9.541297599752726621e-02
2.218000000000000000e+03 -1.192923458711866308e-01
2.223000000000000000e+03 -1.185034201419181976e-01
2.230000000000000000e+03 -1.143935883920995378e-01
2.232000000000000000e+03 -1.046575443910115893e-01
2.233000000000000000e+03 -8.940814593500025220e-02
2.235000000000000000e+03 -1.138970500421734866e-01
2.237000000000000000e+03 -1.156788642332025607e-01
2.238000000000000000e+03 -1.178548396190687853e-01
2.239000000000000000e+03 -1.065785320775080730e-01
2.242000000000000000e+03 -1.040178174126780708e-01
2.243000000000000000e+03 -1.147546386717373801e-01
2.247000000000000000e+03 -1.185334321132515967e-01
2.250000000000000000e+03 1.180279171834712620e-01
2.251000000000000000e+03 1.199004786184999921e-01
2.252000000000000000e+03 1.213979347784946150e-01
2.253000000000000000e+03 1.165279747635394325e-01
2.254000000000000000e+03 1.150767169724554451e-01
2.255000000000000000e+03 9.576536125794382626e-02
2.257000000000000000e+03 9.883862578818042310e-02
2.258000000000000000e+03 1.073957111296476585e-01
2.259000000000000000e+03 1.069993711299613709e-01
2.260000000000000000e+03 1.257687698444417412e-01
2.262000000000000000e+03 1.093268938434231452e-01
2.264000000000000000e+03 1.283742821155776093e-01
2.266000000000000000e+03 1.033704568856819994e-01
2.267000000000000000e+03 1.033454271167573990e-01
2.268000000000000000e+03 1.208314046423319688e-01
2.269000000000000000e+03 1.016952572557976997e-01
2.272000000000000000e+03 1.048429119771448481e-01
2.273000000000000000e+03 1.118776347169791741e-01
2.275000000000000000e+03 1.184852872306844385e-01
2.278000000000000000e+03 1.104411672648457632e-01
2.279000000000000000e+03 1.149839322565609223e-01
2.281000000000000000e+03 1.078241396539620506e-01
2.285000000000000000e+03 9.897285845034994867e-02
2.287000000000000000e+03 1.181477524232825843e-01
2.289000000000000000e+03 1.213319284762134354e-01
2.291000000000000000e+03 1.178566935658599685e-01
2.293000000000000000e+03 1.124355072403604577e-01
2.294000000000000000e+03 1.039832596355212829e-01
2.297000000000000000e+03 1.124745463210461982e-01
2.302000000000000000e+03 1.158954528161047215e-01
2.305000000000000000e+03 1.173522065851296953e-01
2.306000000000000000e+03 1.112726326283873246e-01
2.310000000000000000e+03 1.099998661632855257e-01
2.312000000000000000e+03 1.252764360155771417e-01
2.315000000000000000e+03 1.075119813921646128e-01
2.316000000000000000e+03 1.000780930177531114e-01
2.322000000000000000e+03 1.142926475703636147e-01
2.323000000000000000e+03 1.059915636893172669e-01
2.331000000000000000e+03 9.899478171743708588e-02
2.333000000000000000e+03 1.161207517517114929e-01
2.337000000000000000e+03 1.093859143217370405e-01
2.340000000000000000e+03 1.081733755490086185e-01
2.341000000000000000e+03 1.120264326981009334e-01
2.343000000000000000e+03 1.125131378142449623e-01
2.344000000000000000e+03 1.257771946016936759e-01
2.347000000000000000e+03 9.693294270157151726e-02
2.348000000000000000e+03 1.125705683130153456e-01
2.351000000000000000e+03 1.235386406513817315e-01
2.352000000000000000e+03 1.151320570165049184e-01
2.353000000000000000e+03 1.283715420093043680e-01
2.354000000000000000e+03 1.131495339153001378e-01
2.356000000000000000e+03 1.267245839183040179e-01
2.359000000000000000e+03 9.872923878878822612e-02
2.363000000000000000e+03 1.167577729931244257e-01
2.364000000000000000e+03 1.055137168215923432e-01
2.365000000000000000e+03 1.115255000368271521e-01
2.366000000000000000e+03 1.117752503719821877e-01
2.369000000000000000e+03 1.150586077958099529e-01
2.374000000000000000e+03 1.080753414512786309e-01
2.376000000000000000e+03 -1.136204227525177413e-01
2.377000000000000000e+03 -1.059570169379453752e-01
2.379000000000000000e+03 -1.015331803119857990e-01
2.380000000000000000e+03 -1.234082835285369439e-01
2.381000000000000000e+03 -1.276314704504959985e-01
2.382000000000000000e+03 -1.114575825037850687e-01
2.383000000000000000e+03 -1.083009760746549283e-01
2.384000000000000000e+03 -1.065035638165428983e-01
2.387000000000000000e+03 -1.092185602489166574e-01
2.388000000000000000e+03 -1.139883685661171459e-01
2.389000000000000000e+03 -1.123643660219568879e-01
2.394000000000000000e+03 -1.065754844088095538e-01
2.395000000000000000e+03 -9.722697134626320792e-02
2.398000000000000000e+03 -1.077817070555495138e-01
2.401000000000000000e+03 -1.096576692473220649e-01
2.402000000000000000e+03 -1.127376731522133912e-01
2.404000000000000000e+03 -1.148736123285081373e-01
2.405000000000000000e+03 -1.287662159417931329e-01
2.406000000000000000e+03 -1.071930738275523320e-01
2.408000000000000000e+03 -1.110265937118325164e-01
2.410000000000000000e+03 -1.013610339671179028e-01
2.412000000000000000e+03 -1.098226920308138788e-01
2.413000000000000000e+03 -1.064005565148616606e-01
2.415000000000000000e+03 -1.167625401795241158e-01
2.416000000000000000e+03 -1.203148537479717950e-01
2.420000000000000000e+03 -1.140525453278765089e-01
2.424000000000000000e+03 -1.193653443649034113e-01
2.427000000000000000e+03 -1.122989043109174911e-01
2.428000000000000000e+03 -1.079735142315049468e-01
2.429000000000000000e+03 -1.087889978852291661e-01
2.431000000000000000e+03 -1.010869808431564265e-01
2.433000000000000000e+03 -1.001487844367971169e-01
2.435000000000000000e+03 -1.260370858950422557e-01
2.436000000000000000e+03 -1.055581698370851862e-01
2.437000000000000000e+03 -1.021934712435097203e-01
2.438000000000000000e+03 -1.244219220173541085e-01
2.439000000000000000e+03 -1.070258886977154544e-01
2.443000000000000000e+03 -1.157591689089673415e-01
2.444000000000000000e+03 -1.158974900669921815e-01
2.446000000000000000e+03 -1.369034445457119054e-01
2.448000000000000000e+03 -1.077310596837052631e-01
2.450000000000000000e+03 -1.066779587478632746e-01
2.453000000000000000e+03 -1.129748391207410357e-01
2.455000000000000000e+03 -1.375690233216244618e-01
2.460000000000000000e+03 -1.103133120030417857e-01
2.461000000000000000e+03 -1.247122424489000569e-01
2.466000000000000000e+03 -1.049947593546808333e-01
2.467000000000000000e+03 -1.123406531339572467e-01
2.468000000000000000e+03 -1.096316104812202902e-01
2.469000000000000000e+03 -1.035451057726780866e-01
2.470000000000000000e+03 -1.178339220711895896e-01
2.471000000000000000e+03 -1.063007047198153560e-01
2.472000000000000000e+03 -1.112532068924243084e-01
2.473000000000000000e+03 -1.274919549377119821e-01
2.477000000000000000e+03 -1.103923981225939654e-01
2.482000000000000000e+03 -1.194735296775571165e-01
2.483000000000000000e+03 -1.021010688791770399e-01
2.487000000000000000e+03 -9.767275493028951261e-02
2.490000000000000000e+03 -1.102248451864963757e-01
2.492000000000000000e+03 -1.063589035584284470e-01
2.495000000000000000e+03 -1.158388513641730455e-01
2.498000000000000000e+03 -1.212222220225703806e-01
