-1.000000000000000000e+03 9.627753033328464438e-01 1.985184501401301635e-02 7.500000000000000000e+02
-9.920000000000000000e+02 9.164897058051385548e-01 1.985184501401301635e-02 7.540000000000000000e+02
-9.840000000000000000e+02 7.917055441443010544e-01 1.985184501401301635e-02 7.580000000000000000e+02
-9.760000000000000000e+02 6.324484920092273699e-01 1.985184501401301635e-02 7.620000000000000000e+02
-9.680000000000000000e+02 4.783522521928495475e-01 1.985184501401301635e-02 7.660000000000000000e+02
-9.600000000000000000e+02 3.432939601757452608e-01 1.985184501401301635e-02 7.700000000000000000e+02
-9.520000000000000000e+02 2.172871086304581645e-01 1.985184501401301635e-02 7.740000000000000000e+02
-9.440000000000000000e+02 8.574732504139817579e-02 1.985184501401301635e-02 7.780000000000000000e+02
-9.360000000000000000e+02 -5.329032963892711000e-02 1.985184501401301635e-02 7.820000000000000000e+02
-9.280000000000000000e+02 -1.896220308359832796e-01 1.985184501401301635e-02 7.860000000000000000e+02
-9.200000000000000000e+02 -3.151392698964595174e-01 1.985184501401301635e-02 7.900000000000000000e+02
-9.120000000000000000e+02 -4.355313273290685183e-01 1.985184501401301635e-02 7.940000000000000000e+02
-9.040000000000000000e+02 -5.655842905004307974e-01 1.985184501401301635e-02 7.980000000000000000e+02
-8.960000000000000000e+02 -7.102523148398326436e-01 1.985184501401301635e-02 8.020000000000000000e+02
-8.880000000000000000e+02 -8.495775724846721388e-01 1.985184501401301635e-02 8.060000000000000000e+02
-8.800000000000000000e+02 -9.436108873609572179e-01 1.985184501401301635e-02 8.100000000000000000e+02
-8.720000000000000000e+02 -9.565452834272144544e-01 1.985184501401301635e-02 8.140000000000000000e+02
-8.640000000000000000e+02 -8.771240199855523390e-01 1.985184501401301635e-02 8.180000000000000000e+02
-8.560000000000000000e+02 -7.344504077230651351e-01 1.985184501401301635e-02 8.220000000000000000e+02
-8.480000000000000000e+02 -5.740661750677804598e-01 1.985184501401301635e-02 8.260000000000000000e+02
-8.400000000000000000e+02 -4.273479758137164741e-01 1.985184501401301635e-02 8.300000000000000000e+02
-8.320000000000000000e+02 -2.978282015025019436e-01 1.985184501401301635e-02 8.340000000000000000e+02
-8.240000000000000000e+02 -1.712893585416351561e-01 1.985184501401301635e-02 8.380000000000000000e+02
-8.160000000000000000e+02 -3.657725965122173017e-02 1.985184501401301635e-02 8.420000000000000000e+02
-8.080000000000000000e+02 1.029501422571735131e-01 1.985184501401301635e-02 8.460000000000000000e+02
-8.000000000000000000e+02 2.357244409624403292e-01 1.985184501401301635e-02 8.500000000000000000e+02
-7.920000000000000000e+02 3.580185638975160733e-01 1.985184501401301635e-02 8.540000000000000000e+02
-7.840000000000000000e+02 4.804339247506032029e-01 1.985184501401301635e-02 8.580000000000000000e+02
-7.760000000000000000e+02 6.166799892927867788e-01 1.985184501401301635e-02 8.620000000000000000e+02
-7.680000000000000000e+02 7.635745767266640671e-01 1.985184501401301635e-02 8.660000000000000000e+02
-7.600000000000000000e+02 8.915660054184816330e-01 1.985184501401301635e-02 8.700000000000000000e+02
-7.520000000000000000e+02 9.588121509425810984e-01 1.985184501401301635e-02 8.740000000000000000e+02
-7.440000000000000000e+02 9.367842142593024723e-01 1.985184501401301635e-02 8.780000000000000000e+02
-7.360000000000000000e+02 8.289487031776019421e-01 1.985184501401301635e-02 8.820000000000000000e+02
-7.280000000000000000e+02 6.748458098112882775e-01 1.985184501401301635e-02 8.860000000000000000e+02
-7.200000000000000000e+02 5.178027020506036360e-01 1.985184501401301635e-02 8.900000000000000000e+02
-7.120000000000000000e+02 3.790522235164708320e-01 1.985184501401301635e-02 8.940000000000000000e+02
-7.040000000000000000e+02 2.532363622647670898e-01 1.985184501401301635e-02 8.980000000000000000e+02
-6.960000000000000000e+02 1.245704186133805014e-01 1.985184501401301635e-02 9.020000000000000000e+02
-6.880000000000000000e+02 -1.319806738317933978e-02 1.985184501401301635e-02 9.060000000000000000e+02
-6.800000000000000000e+02 -1.516750617628339348e-01 1.985184501401301635e-02 9.100000000000000000e+02
-6.720000000000000000e+02 -2.802273723345445888e-01 1.985184501401301635e-02 9.140000000000000000e+02
-6.640000000000000000e+02 -4.007242376206572310e-01 1.985184501401301635e-02 9.180000000000000000e+02
-6.560000000000000000e+02 -5.273666223740754999e-01 1.985184501401301635e-02 9.220000000000000000e+02
-6.480000000000000000e+02 -6.699178619883051633e-01 1.985184501401301635e-02 9.260000000000000000e+02
-6.400000000000000000e+02 -8.148306732480959935e-01 1.985184501401301635e-02 9.300000000000000000e+02
-6.320000000000000000e+02 -9.251548173898449523e-01 1.985184501401301635e-02 9.340000000000000000e+02
-6.240000000000000000e+02 -9.612225980648281265e-01 1.985184501401301635e-02 9.380000000000000000e+02
-6.160000000000000000e+02 -9.042954325796649373e-01 1.985184501401301635e-02 9.420000000000000000e+02
-6.080000000000000000e+02 -7.738619046909724908e-01 1.985184501401301635e-02 9.460000000000000000e+02
-6.000000000000000000e+02 -6.148721033398000246e-01 1.985184501401301635e-02 9.500000000000000000e+02
-5.920000000000000000e+02 -4.642644886070464993e-01 1.985184501401301635e-02 9.540000000000000000e+02
-5.840000000000000000e+02 -3.324079107904068797e-01 1.985184501401301635e-02 9.580000000000000000e+02
-5.760000000000000000e+02 -2.073397509382258752e-01 1.985184501401301635e-02 9.620000000000000000e+02
-5.680000000000000000e+02 -7.500687145788798027e-02 1.985184501401301635e-02 9.660000000000000000e+02
-5.600000000000000000e+02 6.466139383291065468e-02 1.985184501401301635e-02 9.700000000000000000e+02
-5.520000000000000000e+02 2.003572886107010120e-01 1.985184501401301635e-02 9.740000000000000000e+02
-5.440000000000000000e+02 3.249391778383607932e-01 1.985184501401301635e-02 9.780000000000000000e+02
-5.360000000000000000e+02 4.460553028322692959e-01 1.985184501401301635e-02 9.820000000000000000e+02
-5.280000000000000000e+02 5.787956450401190445e-01 1.985184501401301635e-02 9.860000000000000000e+02
-5.200000000000000000e+02 7.256824320746128043e-01 1.985184501401301635e-02 9.900000000000000000e+02
-5.120000000000000000e+02 8.631135197221920796e-01 1.985184501401301635e-02 9.940000000000000000e+02
-5.040000000000000000e+02 9.497296538921499165e-01 1.985184501401301635e-02 9.980000000000000000e+02
-4.960000000000000000e+02 9.517431183411069195e-01 1.985184501401301635e-02 1.002000000000000000e+03
-4.880000000000000000e+02 8.630619597366908646e-01 1.985184501401301635e-02 1.006000000000000000e+03
-4.800000000000000000e+02 7.168183235916215645e-01 1.985184501401301635e-02 1.010000000000000000e+03
-4.720000000000000000e+02 5.583870382350689665e-01 1.985184501401301635e-02 1.014000000000000000e+03
-4.640000000000000000e+02 4.155670313692229056e-01 1.985184501401301635e-02 1.018000000000000000e+03
-4.560000000000000000e+02 2.884570691820688704e-01 1.985184501401301635e-02 1.022000000000000000e+03
-4.480000000000000000e+02 1.618254456205045488e-01 1.985184501401301635e-02 1.026000000000000000e+03
-4.400000000000000000e+02 2.591040545836252595e-02 1.985184501401301635e-02 1.030000000000000000e+03
-4.320000000000000000e+02 -1.139434697098248711e-01 1.985184501401301635e-02 1.034000000000000000e+03
-4.240000000000000000e+02 -2.457807352326955574e-01 1.985184501401301635e-02 1.038000000000000000e+03
-4.160000000000000000e+02 -3.675932267870888892e-01 1.985184501401301635e-02 1.042000000000000000e+03
-4.080000000000000000e+02 -4.917951515702836396e-01 1.985184501401301635e-02 1.046000000000000000e+03
-4.000000000000000000e+02 -6.312232026682630393e-01 1.985184501401301635e-02 1.050000000000000000e+03
-3.920000000000000000e+02 -7.791032379715231437e-01 1.985184501401301635e-02 1.054000000000000000e+03
-3.840000000000000000e+02 -9.028591793070179783e-01 1.985184501401301635e-02 1.058000000000000000e+03
-3.760000000000000000e+02 -9.607949810505521659e-01 1.985184501401301635e-02 1.062000000000000000e+03
-3.680000000000000000e+02 -9.275237173076283925e-01 1.985184501401301635e-02 1.066000000000000000e+03
-3.600000000000000000e+02 -8.123606345266165540e-01 1.985184501401301635e-02 1.070000000000000000e+03
-3.520000000000000000e+02 -6.570668274569205769e-01 1.985184501401301635e-02 1.074000000000000000e+03
-3.440000000000000000e+02 -5.030413997733923503e-01 1.985184501401301635e-02 1.078000000000000000e+03
-3.360000000000000000e+02 -3.678080556791168410e-01 1.985184501401301635e-02 1.082000000000000000e+03
-3.280000000000000000e+02 -2.431332590244614511e-01 1.985184501401301635e-02 1.086000000000000000e+03
-3.200000000000000000e+02 -1.133788224170276249e-01 1.985184501401301635e-02 1.090000000000000000e+03
-3.120000000000000000e+02 2.548711478360318056e-02 1.985184501401301635e-02 1.094000000000000000e+03
-3.040000000000000000e+02 1.636704587791548426e-01 1.985184501401301635e-02 1.098000000000000000e+03
-2.960000000000000000e+02 2.912208264893274556e-01 1.985184501401301635e-02 1.102000000000000000e+03
-2.880000000000000000e+02 4.121090052058813957e-01 1.985184501401301635e-02 1.106000000000000000e+03
-2.800000000000000000e+02 5.414358963103653721e-01 1.985184501401301635e-02 1.110000000000000000e+03
-2.720000000000000000e+02 6.866349205303899916e-01 1.985184501401301635e-02 1.114000000000000000e+03
-2.640000000000000000e+02 8.307133481225708049e-01 1.985184501401301635e-02 1.118000000000000000e+03
-2.560000000000000000e+02 9.345339301204471649e-01 1.985184501401301635e-02 1.122000000000000000e+03
-2.480000000000000000e+02 9.598663975020829131e-01 1.985184501401301635e-02 1.126000000000000000e+03
-2.400000000000000000e+02 8.924263557242329004e-01 1.985184501401301635e-02 1.130000000000000000e+03
-2.320000000000000000e+02 7.569285296623590176e-01 1.985184501401301635e-02 1.134000000000000000e+03
-2.240000000000000000e+02 5.985632066420154551e-01 1.985184501401301635e-02 1.138000000000000000e+03
-2.160000000000000000e+02 4.515604549438541060e-01 1.985184501401301635e-02 1.142000000000000000e+03
-2.080000000000000000e+02 3.223924567862181956e-01 1.985184501401301635e-02 1.146000000000000000e+03
-2.000000000000000000e+02 1.973676258793314597e-01 1.985184501401301635e-02 1.150000000000000000e+03
-1.920000000000000000e+02 6.382114972880284509e-02 1.985184501401301635e-02 1.154000000000000000e+03
-1.840000000000000000e+02 -7.641705749483418408e-02 1.985184501401301635e-02 1.158000000000000000e+03
-1.760000000000000000e+02 -2.113766284597582701e-01 1.985184501401301635e-02 1.162000000000000000e+03
-1.680000000000000000e+02 -3.354235195174221640e-01 1.985184501401301635e-02 1.166000000000000000e+03
-1.600000000000000000e+02 -4.579943238473643818e-01 1.985184501401301635e-02 1.170000000000000000e+03
-1.520000000000000000e+02 -5.937127543136493379e-01 1.985184501401301635e-02 1.174000000000000000e+03
-1.440000000000000000e+02 -7.422356307734525593e-01 1.985184501401301635e-02 1.178000000000000000e+03
-1.360000000000000000e+02 -8.766142195530375325e-01 1.985184501401301635e-02 1.182000000000000000e+03
-1.280000000000000000e+02 -9.545971305715638122e-01 1.985184501401301635e-02 1.186000000000000000e+03
-1.200000000000000000e+02 -9.451372534863189401e-01 1.985184501401301635e-02 1.190000000000000000e+03
-1.120000000000000000e+02 -8.477437666282576778e-01 1.985184501401301635e-02 1.194000000000000000e+03
-1.040000000000000000e+02 -6.987420449552894652e-01 1.985184501401301635e-02 1.198000000000000000e+03
-9.600000000000000000e+01 -5.422324324049695443e-01 1.985184501401301635e-02 1.202000000000000000e+03
-8.800000000000000000e+01 -4.026691478250226108e-01 1.985184501401301635e-02 1.206000000000000000e+03
-8.000000000000000000e+01 -2.771773580803552073e-01 1.985184501401301635e-02 1.210000000000000000e+03
-7.200000000000000000e+01 -1.498916337941890997e-01 1.985184501401301635e-02 1.214000000000000000e+03
-6.400000000000000000e+01 -1.284246780526623020e-02 1.985184501401301635e-02 1.218000000000000000e+03
-5.600000000000000000e+01 1.269077482056812645e-01 1.985184501401301635e-02 1.222000000000000000e+03
-4.800000000000000000e+01 2.579219085494395824e-01 1.985184501401301635e-02 1.226000000000000000e+03
-4.000000000000000000e+01 3.798586053482226332e-01 1.985184501401301635e-02 1.230000000000000000e+03
-3.200000000000000000e+01 5.061165514326876336e-01 1.985184501401301635e-02 1.234000000000000000e+03
-2.400000000000000000e+01 6.480556965332918695e-01 1.985184501401301635e-02 1.238000000000000000e+03
-1.600000000000000000e+01 7.957796042907213652e-01 1.985184501401301635e-02 1.242000000000000000e+03
-8.000000000000000000e+00 9.142791577094180333e-01 1.985184501401301635e-02 1.246000000000000000e+03
0.000000000000000000e+00 9.620826858309101670e-01 1.985184501401301635e-02 1.250000000000000000e+03
8.000000000000000000e+00 9.256524918803576973e-01 1.985184501401301635e-02 1.246000000000000000e+03
1.600000000000000000e+01 8.140321845429133729e-01 1.985184501401301635e-02 1.242000000000000000e+03
2.400000000000000000e+01 6.674922793583546454e-01 1.985184501401301635e-02 1.238000000000000000e+03
3.200000000000000000e+01 5.237257211419876768e-01 1.985184501401301635e-02 1.234000000000000000e+03
4.000000000000000000e+01 3.965482232760107473e-01 1.985184501401301635e-02 1.230000000000000000e+03
4.800000000000000000e+01 2.762677756325799816e-01 1.985184501401301635e-02 1.226000000000000000e+03
5.600000000000000000e+01 1.480124524940850117e-01 1.985184501401301635e-02 1.222000000000000000e+03
6.400000000000000000e+01 9.320836598798799486e-03 1.985184501401301635e-02 1.218000000000000000e+03
7.200000000000000000e+01 -1.294338115696460623e-01 1.985184501401301635e-02 1.214000000000000000e+03
8.000000000000000000e+01 -2.593216809652985622e-01 1.985184501401301635e-02 1.210000000000000000e+03
8.800000000000000000e+01 -3.856041589520359802e-01 1.985184501401301635e-02 1.206000000000000000e+03
9.600000000000000000e+01 -5.234918801951450318e-01 1.985184501401301635e-02 1.202000000000000000e+03
1.040000000000000000e+02 -6.786118024409686367e-01 1.985184501401301635e-02 1.198000000000000000e+03
1.120000000000000000e+02 -8.307364237312305777e-01 1.985184501401301635e-02 1.194000000000000000e+03
1.200000000000000000e+02 -9.373966521535243013e-01 1.985184501401301635e-02 1.190000000000000000e+03
1.280000000000000000e+02 -9.592313662651804629e-01 1.985184501401301635e-02 1.186000000000000000e+03
1.360000000000000000e+02 -8.910979872677549096e-01 1.985184501401301635e-02 1.182000000000000000e+03
1.440000000000000000e+02 -7.611425195219632123e-01 1.985184501401301635e-02 1.178000000000000000e+03
1.520000000000000000e+02 -6.122569642064168427e-01 1.985184501401301635e-02 1.174000000000000000e+03
1.600000000000000000e+02 -4.748105253115542101e-01 1.985184501401301635e-02 1.170000000000000000e+03
1.680000000000000000e+02 -3.524531372118898664e-01 1.985184501401301635e-02 1.166000000000000000e+03
1.760000000000000000e+02 -2.308142821939288825e-01 1.985184501401301635e-02 1.162000000000000000e+03
1.840000000000000000e+02 -9.821108872657116629e-02 1.985184501401301635e-02 1.158000000000000000e+03
1.920000000000000000e+02 4.224477989513160392e-02 1.985184501401301635e-02 1.154000000000000000e+03
2.000000000000000000e+02 1.782590955039878022e-01 1.985184501401301635e-02 1.150000000000000000e+03
2.080000000000000000e+02 3.053509920037869585e-01 1.985184501401301635e-02 1.146000000000000000e+03
2.160000000000000000e+02 4.342095886614815159e-01 1.985184501401301635e-02 1.142000000000000000e+03
2.240000000000000000e+02 5.791223677814703041e-01 1.985184501401301635e-02 1.138000000000000000e+03
2.320000000000000000e+02 7.372613940719879855e-01 1.985184501401301635e-02 1.134000000000000000e+03
2.400000000000000000e+02 8.781596278853144311e-01 1.985184501401301635e-02 1.130000000000000000e+03
2.480000000000000000e+02 9.566004922094495377e-01 1.985184501401301635e-02 1.126000000000000000e+03
2.560000000000000000e+02 9.431312569230576592e-01 1.985184501401301635e-02 1.122000000000000000e+03
2.640000000000000000e+02 8.473939476647317504e-01 1.985184501401301635e-02 1.118000000000000000e+03
2.720000000000000000e+02 7.057346136975318762e-01 1.985184501401301635e-02 1.114000000000000000e+03
2.800000000000000000e+02 5.591784508262854780e-01 1.985184501401301635e-02 1.110000000000000000e+03
2.880000000000000000e+02 4.285944245020953947e-01 1.985184501401301635e-02 1.106000000000000000e+03
2.960000000000000000e+02 3.087248582437571720e-01 1.985184501401301635e-02 1.102000000000000000e+03
3.040000000000000000e+02 1.837454662502380764e-01 1.985184501401301635e-02 1.098000000000000000e+03
3.120000000000000000e+02 4.710828925653726823e-02 1.985184501401301635e-02 1.094000000000000000e+03
3.200000000000000000e+02 -9.285333447629350034e-02 1.985184501401301635e-02 1.090000000000000000e+03
3.280000000000000000e+02 -2.250810375996960266e-01 1.985184501401301635e-02 1.086000000000000000e+03
3.360000000000000000e+02 -3.510296980680368550e-01 1.985184501401301635e-02 1.082000000000000000e+03
3.440000000000000000e+02 -4.849737554514165772e-01 1.985184501401301635e-02 1.078000000000000000e+03
3.520000000000000000e+02 -6.369664610943687189e-01 1.985184501401301635e-02 1.074000000000000000e+03
3.600000000000000000e+02 -7.938552564785836818e-01 1.985184501401301635e-02 1.070000000000000000e+03
3.680000000000000000e+02 -9.167307962239501506e-01 1.985184501401301635e-02 1.066000000000000000e+03
3.760000000000000000e+02 -9.621481290701086042e-01 1.985184501401301635e-02 1.062000000000000000e+03
3.840000000000000000e+02 -9.152049239596552477e-01 1.985184501401301635e-02 1.058000000000000000e+03
3.920000000000000000e+02 -7.974729990565881943e-01 1.985184501401301635e-02 1.054000000000000000e+03
4.000000000000000000e+02 -6.503328739118621193e-01 1.985184501401301635e-02 1.050000000000000000e+03
4.080000000000000000e+02 -5.091258402382240478e-01 1.985184501401301635e-02 1.046000000000000000e+03
4.160000000000000000e+02 -3.843457602694458908e-01 1.985184501401301635e-02 1.042000000000000000e+03
4.240000000000000000e+02 -2.644407228782217900e-01 1.985184501401301635e-02 1.038000000000000000e+03
4.320000000000000000e+02 -1.351966738757865716e-01 1.985184501401301635e-02 1.034000000000000000e+03
4.400000000000000000e+02 4.072227780450209979e-03 1.985184501401301635e-02 1.030000000000000000e+03
4.480000000000000000e+02 1.422499011027494042e-01 1.985184501401301635e-02 1.026000000000000000e+03
4.560000000000000000e+02 2.714047863887610879e-01 1.985184501401301635e-02 1.022000000000000000e+03
4.640000000000000000e+02 3.986338146534625926e-01 1.985184501401301635e-02 1.018000000000000000e+03
4.720000000000000000e+02 5.392080941983530273e-01 1.985184501401301635e-02 1.014000000000000000e+03
4.800000000000000000e+02 6.963702859816621737e-01 1.985184501401301635e-02 1.010000000000000000e+03
4.880000000000000000e+02 8.462136896570747746e-01 1.985184501401301635e-02 1.006000000000000000e+03
4.960000000000000000e+02 9.448332227085780577e-01 1.985184501401301635e-02 1.002000000000000000e+03
5.040000000000000000e+02 9.553384137393038378e-01 1.985184501401301635e-02 9.980000000000000000e+02
5.120000000000000000e+02 8.782971314447081124e-01 1.985184501401301635e-02 9.940000000000000000e+02
5.200000000000000000e+02 7.448381383440699777e-01 1.985184501401301635e-02 9.900000000000000000e+02
5.280000000000000000e+02 5.971820994915029157e-01 1.985184501401301635e-02 9.860000000000000000e+02
5.360000000000000000e+02 4.626677831362828175e-01 1.985184501401301635e-02 9.820000000000000000e+02
5.440000000000000000e+02 3.419207478242670128e-01 1.985184501401301635e-02 9.780000000000000000e+02
5.520000000000000000e+02 2.198459799700183681e-01 1.985184501401301635e-02 9.740000000000000000e+02
5.600000000000000000e+02 8.594573253584168737e-02 1.985184501401301635e-02 9.700000000000000000e+02
5.680000000000000000e+02 -5.454963590675857010e-02 1.985184501401301635e-02 9.660000000000000000e+02
5.760000000000000000e+02 -1.896586774586889179e-01 1.985184501401301635e-02 9.620000000000000000e+02
5.840000000000000000e+02 -3.165924233942039034e-01 1.985184501401301635e-02 9.580000000000000000e+02
5.920000000000000000e+02 -4.473546032740756129e-01 1.985184501401301635e-02 9.540000000000000000e+02
6.000000000000000000e+02 -5.953998962543395335e-01 1.985184501401301635e-02 9.500000000000000000e+02
6.080000000000000000e+02 -7.544893790335656103e-01 1.985184501401301635e-02 9.460000000000000000e+02
6.160000000000000000e+02 -8.910335620781686394e-01 1.985184501401301635e-02 9.420000000000000000e+02
6.240000000000000000e+02 -9.596211181599726414e-01 1.985184501401301635e-02 9.380000000000000000e+02
6.320000000000000000e+02 -9.352963066288424443e-01 1.985184501401301635e-02 9.340000000000000000e+02
6.400000000000000000e+02 -8.325924356769627277e-01 1.985184501401301635e-02 9.300000000000000000e+02
6.480000000000000000e+02 -6.895474236478917884e-01 1.985184501401301635e-02 9.260000000000000000e+02
6.560000000000000000e+02 -5.455062752280047667e-01 1.985184501401301635e-02 9.220000000000000000e+02
6.640000000000000000e+02 -4.177653303371127169e-01 1.985184501401301635e-02 9.180000000000000000e+02
6.720000000000000000e+02 -2.986433737875389127e-01 1.985184501401301635e-02 9.140000000000000000e+02
6.800000000000000000e+02 -1.725546949827787002e-01 1.985184501401301635e-02 9.100000000000000000e+02
6.880000000000000000e+02 -3.497745335452704524e-02 1.985184501401301635e-02 9.060000000000000000e+02
6.960000000000000000e+02 1.048130008629781645e-01 1.985184501401301635e-02 9.020000000000000000e+02
7.040000000000000000e+02 2.366339785497820480e-01 1.985184501401301635e-02 8.980000000000000000e+02
7.120000000000000000e+02 3.632645625151663671e-01 1.985184501401301635e-02 8.940000000000000000e+02
7.200000000000000000e+02 4.997767595120974349e-01 1.985184501401301635e-02 8.900000000000000000e+02
7.280000000000000000e+02 6.545065450636448068e-01 1.985184501401301635e-02 8.860000000000000000e+02
7.360000000000000000e+02 8.105642108998302175e-01 1.985184501401301635e-02 8.820000000000000000e+02
7.440000000000000000e+02 9.270493097776922875e-01 1.985184501401301635e-02 8.780000000000000000e+02
7.520000000000000000e+02 9.616021249162056694e-01 1.985184501401301635e-02 8.740000000000000000e+02
7.600000000000000000e+02 9.049502875960674375e-01 1.985184501401301635e-02 8.700000000000000000e+02
7.680000000000000000e+02 7.822699139379764022e-01 1.985184501401301635e-02 8.660000000000000000e+02
7.760000000000000000e+02 6.353074263873625949e-01 1.985184501401301635e-02 8.620000000000000000e+02
7.840000000000000000e+02 4.972514848395570564e-01 1.985184501401301635e-02 8.580000000000000000e+02
7.920000000000000000e+02 3.749598292037163438e-01 1.985184501401301635e-02 8.540000000000000000e+02
8.000000000000000000e+02 2.551179663328949632e-01 1.985184501401301635e-02 8.500000000000000000e+02
8.080000000000000000e+02 1.244924805709943239e-01 1.985184501401301635e-02 8.460000000000000000e+02
8.160000000000000000e+02 -1.551707091823901867e-02 1.985184501401301635e-02 8.420000000000000000e+02
8.240000000000000000e+02 -1.529727310664764639e-01 1.985184501401301635e-02 8.380000000000000000e+02
8.320000000000000000e+02 -2.815408394454512742e-01 1.985184501401301635e-02 8.340000000000000000e+02
8.400000000000000000e+02 -4.101504872248170064e-01 1.985184501401301635e-02 8.300000000000000000e+02
8.480000000000000000e+02 -5.539471566983691364e-01 1.985184501401301635e-02 8.260000000000000000e+02
8.560000000000000000e+02 -7.132420236809750014e-01 1.985184501401301635e-02 8.220000000000000000e+02
8.640000000000000000e+02 -8.605201953718417673e-01 1.985184501401301635e-02 8.180000000000000000e+02
8.720000000000000000e+02 -9.507511012621382429e-01 1.985184501401301635e-02 8.140000000000000000e+02
8.800000000000000000e+02 -9.500432516847328035e-01 1.985184501401301635e-02 8.100000000000000000e+02
8.880000000000000000e+02 -8.647336592182816029e-01 1.985184501401301635e-02 8.060000000000000000e+02
8.960000000000000000e+02 -7.284002966890497088e-01 1.985184501401301635e-02 8.020000000000000000e+02
9.040000000000000000e+02 -5.826814297327272962e-01 1.985184501401301635e-02 7.980000000000000000e+02
9.120000000000000000e+02 -4.515463599107217840e-01 1.985184501401301635e-02 7.940000000000000000e+02
9.200000000000000000e+02 -3.324993673123686211e-01 1.985184501401301635e-02 7.900000000000000000e+02
9.280000000000000000e+02 -2.097595270378031784e-01 1.985184501401301635e-02 7.860000000000000000e+02
9.360000000000000000e+02 -7.469597794293676707e-02 1.985184501401301635e-02 7.820000000000000000e+02
9.440000000000000000e+02 6.582999818900604760e-02 1.985184501401301635e-02 7.780000000000000000e+02
9.520000000000000000e+02 1.998617852568727316e-01 1.985184501401301635e-02 7.740000000000000000e+02
9.600000000000000000e+02 3.268377376767028775e-01 1.985184501401301635e-02 7.700000000000000000e+02
9.680000000000000000e+02 4.601950593752869301e-01 1.985184501401301635e-02 7.660000000000000000e+02
9.760000000000000000e+02 6.118566326487916429e-01 1.985184501401301635e-02 7.620000000000000000e+02
9.840000000000000000e+02 7.721715247171363483e-01 1.985184501401301635e-02 7.580000000000000000e+02
9.920000000000000000e+02 9.042832799702072988e-01 1.985184501401301635e-02 7.540000000000000000e+02
1.000000000000000000e+03 9.627958347730091182e-01 1.985184501401301635e-02 7.500000000000000000e+02
