-1.000000000000000000e+03 9.751506114690056126e-01 4.059504314557638854e-02 9.387484933708348933e+01
-9.920000000000000000e+02 9.395397600082839862e-01 4.059504314557638854e-02 8.761570912012888357e+01
-9.840000000000000000e+02 8.839582055043919695e-01 4.059504314557638854e-02 9.136922458818831672e+01
-9.760000000000000000e+02 7.344771017103421951e-01 4.059504314557638854e-02 9.086781840096456619e+01
-9.680000000000000000e+02 6.252960377376028944e-01 4.059504314557638854e-02 9.785235034150295519e+01
-9.600000000000000000e+02 4.460687394533750516e-01 4.059504314557638854e-02 1.048509441542792331e+02
-9.520000000000000000e+02 3.471126601714776827e-01 4.059504314557638854e-02 1.046143029329051188e+02
-9.440000000000000000e+02 1.497850109178303635e-01 4.059504314557638854e-02 1.011072719967862241e+02
-9.360000000000000000e+02 9.615682085384652869e-03 4.059504314557638854e-02 9.734531940538408890e+01
-9.280000000000000000e+02 -1.688490865572144506e-01 4.059504314557638854e-02 9.861570912012889778e+01
-9.200000000000000000e+02 -2.228347015362526495e-01 4.059504314557638854e-02 9.637063077541213829e+01
-9.120000000000000000e+02 -4.236787628901881320e-01 4.059504314557638854e-02 9.861008437123376780e+01
-9.040000000000000000e+02 -5.849196649001213721e-01 4.059504314557638854e-02 9.637625552430725406e+01
-8.960000000000000000e+02 -7.416300739827408339e-01 4.059504314557638854e-02 1.038565689031743489e+02
-8.880000000000000000e+02 -8.104729112986438500e-01 4.059504314557638854e-02 1.001002410606672868e+02
-8.800000000000000000e+02 -9.209873299143152003e-01 4.059504314557638854e-02 9.810445962233865203e+01
-8.720000000000000000e+02 -9.500746527850701950e-01 4.059504314557638854e-02 1.056171153073527194e+02
-8.640000000000000000e+02 -9.060533629722303806e-01 4.059504314557638854e-02 1.098509441542792331e+02
-8.560000000000000000e+02 -7.746784984582590905e-01 4.059504314557638854e-02 9.636078746484565727e+01
-8.480000000000000000e+02 -6.665809510490771084e-01 4.059504314557638854e-02 1.045988348734435363e+02
-8.400000000000000000e+02 -5.825885005491666657e-01 4.059504314557638854e-02 1.076157091201289404e+02
-8.320000000000000000e+02 -3.912345910097689283e-01 4.059504314557638854e-02 1.028607874648456999e+02
-8.240000000000000000e+02 -2.948221110384053323e-01 4.059504314557638854e-02 1.028523503415029836e+02
-8.160000000000000000e+02 -1.520407213585494854e-01 4.059504314557638854e-02 1.096143029329051188e+02
-8.080000000000000000e+02 6.206997985503781567e-02 4.059504314557638854e-02 1.066044596223386804e+02
-8.000000000000000000e+02 1.791900868855506590e-01 4.059504314557638854e-02 1.105903977501008910e+02
-7.920000000000000000e+02 3.353851093283616303e-01 4.059504314557638854e-02 1.031086781840100031e+02
-7.840000000000000000e+02 5.010134315872363242e-01 4.059504314557638854e-02 1.108551627159505557e+02
-7.760000000000000000e+02 6.404651851349333347e-01 4.059504314557638854e-02 1.070960224989959642e+02
-7.680000000000000000e+02 7.398198816051858584e-01 4.059504314557638854e-02 1.083453194053841031e+02
-7.600000000000000000e+02 9.126487779730121375e-01 4.059504314557638854e-02 1.043453194053840889e+02
-7.520000000000000000e+02 9.545003132352490871e-01 4.059504314557638854e-02 1.113368822820414010e+02
-7.440000000000000000e+02 9.362490854758783732e-01 4.059504314557638854e-02 1.081030534351149015e+02
-7.360000000000000000e+02 8.582346935452738190e-01 4.059504314557638854e-02 1.063509441542792047e+02
-7.280000000000000000e+02 7.270029788536098714e-01 4.059504314557638854e-02 1.086002410606673436e+02
-7.200000000000000000e+02 6.636889500835373434e-01 4.059504314557638854e-02 1.110861791884295258e+02
-7.120000000000000000e+02 4.574847057944890771e-01 4.059504314557638854e-02 1.170861791884295542e+02
-7.040000000000000000e+02 3.291557314560093483e-01 4.059504314557638854e-02 1.070988348734435505e+02
-6.960000000000000000e+02 1.814198942036208961e-01 4.059504314557638854e-02 1.095861791884295258e+02
-6.880000000000000000e+02 -6.095343389794369293e-02 4.059504314557638854e-02 1.106072719967862383e+02
-6.800000000000000000e+02 -7.212647803271352021e-02 4.059504314557638854e-02 1.065861791884295116e+02
-6.720000000000000000e+02 -2.208140837167848480e-01 4.059504314557638854e-02 1.108396946564890015e+02
-6.640000000000000000e+02 -4.239684468999846412e-01 4.059504314557638854e-02 1.026030534351148731e+02
-6.560000000000000000e+02 -6.237178700501336825e-01 4.059504314557638854e-02 1.220833668139819963e+02
-6.480000000000000000e+02 -6.392767455731929171e-01 4.059504314557638854e-02 1.140960224989960068e+02
-6.400000000000000000e+02 -7.886236114344791215e-01 4.059504314557638854e-02 1.105861791884295258e+02
-6.320000000000000000e+02 -9.286951958833136178e-01 4.059504314557638854e-02 1.145974286862197857e+02
-6.240000000000000000e+02 -9.655199396785928423e-01 4.059504314557638854e-02 1.190861791884295258e+02
-6.160000000000000000e+02 -9.452636369439741948e-01 4.059504314557638854e-02 1.145932101245484489e+02
-6.080000000000000000e+02 -8.421851007158807079e-01 4.059504314557638854e-02 1.188270389714749626e+02
-6.000000000000000000e+02 -7.325492815376054567e-01 4.059504314557638854e-02 1.108411008437127521e+02
-5.920000000000000000e+02 -5.280209511706217551e-01 4.059504314557638854e-02 1.203467255926079105e+02
-5.840000000000000000e+02 -4.205066112827740565e-01 4.059504314557638854e-02 1.183340699075938858e+02
-5.760000000000000000e+02 -3.125846502847157149e-01 4.059504314557638854e-02 1.128425070309365452e+02
-5.680000000000000000e+02 -7.084588530923595362e-02 4.059504314557638854e-02 1.190819606267581747e+02
-5.600000000000000000e+02 4.094405229827514925e-02 4.059504314557638854e-02 1.175819606267582174e+02
-5.520000000000000000e+02 2.151979045538336133e-01 4.059504314557638854e-02 1.148284451586987558e+02
-5.440000000000000000e+02 3.688518554933754023e-01 4.059504314557638854e-02 1.170833668139819679e+02
-5.360000000000000000e+02 5.330121540026927507e-01 4.059504314557638854e-02 1.268214142225798611e+02
-5.280000000000000000e+02 6.682352825232351634e-01 4.059504314557638854e-02 1.238270389714749626e+02
-5.200000000000000000e+02 7.077595187468208593e-01 4.059504314557638854e-02 1.175833668139819679e+02
-5.120000000000000000e+02 8.331500896349813834e-01 4.059504314557638854e-02 1.200833668139819395e+02
-5.040000000000000000e+02 9.495293332703532707e-01 4.059504314557638854e-02 1.230678987545203853e+02
-4.960000000000000000e+02 9.488391107367035726e-01 4.059504314557638854e-02 1.260693049417441784e+02
-4.880000000000000000e+02 8.645196062643181190e-01 4.059504314557638854e-02 1.283298513459225489e+02
-4.800000000000000000e+02 7.951623459686627537e-01 4.059504314557638854e-02 1.270636801928490627e+02
-4.720000000000000000e+02 6.243887737063771315e-01 4.059504314557638854e-02 1.223270389714749342e+02
-4.640000000000000000e+02 4.873099401946599518e-01 4.059504314557638854e-02 1.330594616311777258e+02
-4.560000000000000000e+02 3.968256309274338367e-01 4.059504314557638854e-02 1.240777420650868521e+02
-4.480000000000000000e+02 1.959394147651718210e-01 4.059504314557638854e-02 1.288115709120133943e+02
-4.400000000000000000e+02 1.010908625634735283e-02 4.059504314557638854e-02 1.368143832864609806e+02
-4.320000000000000000e+02 1.000992954466360142e-03 4.059504314557638854e-02 1.315693049417441784e+02
-4.240000000000000000e+02 -1.134373879274877400e-01 4.059504314557638854e-02 1.208228204098036400e+02
-4.160000000000000000e+02 -3.628919257375490259e-01 4.059504314557638854e-02 1.318214142225798753e+02
-4.080000000000000000e+02 -6.210040905698500646e-01 4.059504314557638854e-02 1.240678987545204137e+02
-4.000000000000000000e+02 -6.721070046927277719e-01 4.059504314557638854e-02 1.375580554439539753e+02
-3.920000000000000000e+02 -7.927774474229039026e-01 4.059504314557638854e-02 1.158256327842511837e+02
-3.840000000000000000e+02 -9.093654503142782897e-01 4.059504314557638854e-02 1.350777420650868805e+02
-3.760000000000000000e+02 -9.467958132467794163e-01 4.059504314557638854e-02 1.283157894736847027e+02
-3.680000000000000000e+02 -9.546426874152330599e-01 4.059504314557638854e-02 1.360608678184015332e+02
-3.600000000000000000e+02 -8.596102919425574473e-01 4.059504314557638854e-02 1.295805544395344100e+02
-3.520000000000000000e+02 -7.172644474161603556e-01 4.059504314557638854e-02 1.310664925672966206e+02
-3.440000000000000000e+02 -6.033012272774769258e-01 4.059504314557638854e-02 1.375566492567302248e+02
-3.360000000000000000e+02 -4.613286711894846182e-01 4.059504314557638854e-02 1.247989152269993411e+02
-3.280000000000000000e+02 -3.492724080881824400e-01 4.059504314557638854e-02 1.325636801928490627e+02
-3.200000000000000000e+02 -9.197416908493440124e-02 4.059504314557638854e-02 1.298031337886707206e+02
-3.120000000000000000e+02 -9.960030937411845989e-03 4.059504314557638854e-02 1.415524306950588311e+02
-3.040000000000000000e+02 1.446317410177569152e-01 4.059504314557638854e-02 1.405566492567301680e+02
-2.960000000000000000e+02 3.396117207988835207e-01 4.059504314557638854e-02 1.315721173161917648e+02
-2.880000000000000000e+02 4.873695351420669342e-01 4.059504314557638854e-02 1.440439935717161859e+02
-2.800000000000000000e+02 6.449321763075795966e-01 4.059504314557638854e-02 1.248171956609085242e+02
-2.720000000000000000e+02 7.520361482913076046e-01 4.059504314557638854e-02 1.328101647247896153e+02
-2.640000000000000000e+02 8.013799105120437138e-01 4.059504314557638854e-02 1.278129770992371448e+02
-2.560000000000000000e+02 9.389896634805718900e-01 4.059504314557638854e-02 1.440468059461637154e+02
-2.480000000000000000e+02 9.633549876900073805e-01 4.059504314557638854e-02 1.460510245078350522e+02
-2.400000000000000000e+02 8.862568433802753276e-01 4.059504314557638854e-02 1.433045399758944995e+02
-2.320000000000000000e+02 7.701541621739068644e-01 4.059504314557638854e-02 1.383115709120134227e+02
-2.240000000000000000e+02 7.005875700072103918e-01 4.059504314557638854e-02 1.343017276014469417e+02
-2.160000000000000000e+02 5.478340413568146827e-01 4.059504314557638854e-02 1.415580554439539753e+02
-2.080000000000000000e+02 4.030272843289662288e-01 4.059504314557638854e-02 1.465566492567302248e+02
-2.000000000000000000e+02 1.831821210821008572e-01 4.059504314557638854e-02 1.338073523503421143e+02
-1.920000000000000000e+02 5.364578448861682253e-02 4.059504314557638854e-02 1.400524306950588311e+02
-1.840000000000000000e+02 -4.705153130218940605e-02 4.059504314557638854e-02 1.338143832864609806e+02
-1.760000000000000000e+02 -2.097956845981488738e-01 4.059504314557638854e-02 1.457961028525518543e+02
-1.680000000000000000e+02 -3.054942459763249074e-01 4.059504314557638854e-02 1.425594616311777258e+02
-1.600000000000000000e+02 -6.006146649429147111e-01 4.059504314557638854e-02 1.400453997589399080e+02
-1.520000000000000000e+02 -6.829126117255400752e-01 4.059504314557638854e-02 1.447862595419853733e+02
-1.440000000000000000e+02 -7.947792694056314833e-01 4.059504314557638854e-02 1.472806347930902291e+02
-1.360000000000000000e+02 -8.664909625884472666e-01 4.059504314557638854e-02 1.453045399758944995e+02
-1.280000000000000000e+02 -9.712568315484791936e-01 4.059504314557638854e-02 1.460468059461637154e+02
-1.200000000000000000e+02 -9.545309670473327568e-01 4.059504314557638854e-02 1.482989152269993838e+02
-1.120000000000000000e+02 -9.023825049232695461e-01 4.059504314557638854e-02 1.497876657292091522e+02
-1.040000000000000000e+02 -7.029088730190466983e-01 4.059504314557638854e-02 1.465383688228210417e+02
-9.600000000000000000e+01 -6.417630492790712404e-01 4.059504314557638854e-02 1.535355564483734838e+02
-8.800000000000000000e+01 -4.931403035182024275e-01 4.059504314557638854e-02 1.500383688228210701e+02
-8.000000000000000000e+01 -3.597171734138845944e-01 4.059504314557638854e-02 1.492778224186426996e+02
-7.200000000000000000e+01 -2.387541962927489936e-01 4.059504314557638854e-02 1.512806347930902575e+02
-6.400000000000000000e+01 -3.730191625721077098e-02 4.059504314557638854e-02 1.477904781036567385e+02
-5.600000000000000000e+01 9.440471093755750664e-02 4.059504314557638854e-02 1.495439935717161575e+02
-4.800000000000000000e+01 3.583233136424472387e-01 4.059504314557638854e-02 1.530229007633594449e+02
-4.000000000000000000e+01 4.743876792738592751e-01 4.059504314557638854e-02 1.587764162314189491e+02
-3.200000000000000000e+01 5.824970116652483654e-01 4.059504314557638854e-02 1.512848533547615943e+02
-2.400000000000000000e+01 6.488582005786313056e-01 4.059504314557638854e-02 1.482932904781042680e+02
-1.600000000000000000e+01 8.050942953124172741e-01 4.059504314557638854e-02 1.547721976697475554e+02
-8.000000000000000000e+00 8.801036749664515879e-01 4.059504314557638854e-02 1.567736038569713628e+02
0.000000000000000000e+00 9.626144565658917296e-01 4.059504314557638854e-02 3.907792286058665923e+02
8.000000000000000000e+00 8.939563161133490254e-01 4.059504314557638854e-02 1.567736038569713628e+02
1.600000000000000000e+01 8.212955971601768601e-01 4.059504314557638854e-02 1.547721976697475554e+02
2.400000000000000000e+01 6.842772407506979571e-01 4.059504314557638854e-02 1.482932904781042680e+02
3.200000000000000000e+01 5.698845601952664541e-01 4.059504314557638854e-02 1.512848533547615943e+02
4.000000000000000000e+01 4.808498183345248922e-01 4.059504314557638854e-02 1.587764162314189491e+02
4.800000000000000000e+01 4.143685548383005957e-01 4.059504314557638854e-02 1.530229007633594449e+02
5.600000000000000000e+01 8.103064741763404966e-02 4.059504314557638854e-02 1.495439935717161575e+02
6.400000000000000000e+01 -3.791572288855180745e-02 4.059504314557638854e-02 1.477904781036567385e+02
7.200000000000000000e+01 -2.078178682671996680e-01 4.059504314557638854e-02 1.512806347930902575e+02
8.000000000000000000e+01 -2.894977737793830164e-01 4.059504314557638854e-02 1.492778224186426996e+02
8.800000000000000000e+01 -4.851741815185816042e-01 4.059504314557638854e-02 1.500383688228210701e+02
9.600000000000000000e+01 -6.249441754695382878e-01 4.059504314557638854e-02 1.535355564483734838e+02
1.040000000000000000e+02 -7.072208803362638463e-01 4.059504314557638854e-02 1.465383688228210417e+02
1.120000000000000000e+02 -8.240980031836632191e-01 4.059504314557638854e-02 1.497876657292091522e+02
1.200000000000000000e+02 -9.549248039990555492e-01 4.059504314557638854e-02 1.482989152269993838e+02
1.280000000000000000e+02 -9.775463667177829441e-01 4.059504314557638854e-02 1.460468059461637154e+02
1.360000000000000000e+02 -9.169890483664030478e-01 4.059504314557638854e-02 1.453045399758944995e+02
1.440000000000000000e+02 -8.042050024709220812e-01 4.059504314557638854e-02 1.472806347930902291e+02
1.520000000000000000e+02 -7.120741649726904932e-01 4.059504314557638854e-02 1.447862595419853733e+02
1.600000000000000000e+02 -5.640737152095343099e-01 4.059504314557638854e-02 1.400453997589399080e+02
1.680000000000000000e+02 -3.568055801822917483e-01 4.059504314557638854e-02 1.425594616311777258e+02
1.760000000000000000e+02 -2.156404601423068390e-01 4.059504314557638854e-02 1.457961028525518543e+02
1.840000000000000000e+02 -2.990027473387987106e-02 4.059504314557638854e-02 1.338143832864609806e+02
1.920000000000000000e+02 6.971115892400907288e-02 4.059504314557638854e-02 1.400524306950588311e+02
2.000000000000000000e+02 1.814976782412356937e-01 4.059504314557638854e-02 1.338073523503421143e+02
2.080000000000000000e+02 3.560630467032956936e-01 4.059504314557638854e-02 1.465566492567302248e+02
2.160000000000000000e+02 5.734009513705610184e-01 4.059504314557638854e-02 1.415580554439539753e+02
2.240000000000000000e+02 6.708759621701843034e-01 4.059504314557638854e-02 1.343017276014469417e+02
2.320000000000000000e+02 7.297046040139796297e-01 4.059504314557638854e-02 1.383115709120134227e+02
2.400000000000000000e+02 8.762838144078316516e-01 4.059504314557638854e-02 1.433045399758944995e+02
2.480000000000000000e+02 9.592259054831138165e-01 4.059504314557638854e-02 1.460510245078350522e+02
2.560000000000000000e+02 9.598553064525997547e-01 4.059504314557638854e-02 1.440468059461637154e+02
2.640000000000000000e+02 8.190466841017035593e-01 4.059504314557638854e-02 1.278129770992371448e+02
2.720000000000000000e+02 7.949697097583470207e-01 4.059504314557638854e-02 1.328101647247896153e+02
2.800000000000000000e+02 6.501297499026952309e-01 4.059504314557638854e-02 1.248171956609085242e+02
2.880000000000000000e+02 4.681961347781166127e-01 4.059504314557638854e-02 1.440439935717161859e+02
2.960000000000000000e+02 3.909581862162869181e-01 4.059504314557638854e-02 1.315721173161917648e+02
3.040000000000000000e+02 1.315481237731169484e-01 4.059504314557638854e-02 1.405566492567301680e+02
3.120000000000000000e+02 -3.152083012361610315e-02 4.059504314557638854e-02 1.415524306950588311e+02
3.200000000000000000e+02 -1.040880714824818920e-01 4.059504314557638854e-02 1.298031337886707206e+02
3.280000000000000000e+02 -2.995007635638914922e-01 4.059504314557638854e-02 1.325636801928490627e+02
3.360000000000000000e+02 -4.503685397621157716e-01 4.059504314557638854e-02 1.247989152269993411e+02
3.440000000000000000e+02 -5.867792113324338255e-01 4.059504314557638854e-02 1.375566492567302248e+02
3.520000000000000000e+02 -6.926890884759394629e-01 4.059504314557638854e-02 1.310664925672966206e+02
3.600000000000000000e+02 -8.259861022876938685e-01 4.059504314557638854e-02 1.295805544395344100e+02
3.680000000000000000e+02 -9.432044238502649280e-01 4.059504314557638854e-02 1.360608678184015332e+02
3.760000000000000000e+02 -9.496396837507201649e-01 4.059504314557638854e-02 1.283157894736847027e+02
3.840000000000000000e+02 -9.376187177387234062e-01 4.059504314557638854e-02 1.350777420650868805e+02
3.920000000000000000e+02 -8.103810181505207710e-01 4.059504314557638854e-02 1.158256327842511837e+02
4.000000000000000000e+02 -7.147216995460555777e-01 4.059504314557638854e-02 1.375580554439539753e+02
4.080000000000000000e+02 -5.876235585583917675e-01 4.059504314557638854e-02 1.240678987545204137e+02
4.160000000000000000e+02 -3.729016109595798545e-01 4.059504314557638854e-02 1.318214142225798753e+02
4.240000000000000000e+02 -1.614747536084886470e-01 4.059504314557638854e-02 1.208228204098036400e+02
4.320000000000000000e+02 3.266299855012774062e-02 4.059504314557638854e-02 1.315693049417441784e+02
4.400000000000000000e+02 6.262499543462426467e-03 4.059504314557638854e-02 1.368143832864609806e+02
4.480000000000000000e+02 1.463124562497868930e-01 4.059504314557638854e-02 1.288115709120133943e+02
4.560000000000000000e+02 3.476386006314083343e-01 4.059504314557638854e-02 1.240777420650868521e+02
4.640000000000000000e+02 5.011092032907931149e-01 4.059504314557638854e-02 1.330594616311777258e+02
4.720000000000000000e+02 6.049521339465313563e-01 4.059504314557638854e-02 1.223270389714749342e+02
4.800000000000000000e+02 7.485431512588860414e-01 4.059504314557638854e-02 1.270636801928490627e+02
4.880000000000000000e+02 8.084808415264973513e-01 4.059504314557638854e-02 1.283298513459225489e+02
4.960000000000000000e+02 9.414840633130379111e-01 4.059504314557638854e-02 1.260693049417441784e+02
5.040000000000000000e+02 9.534633396438834119e-01 4.059504314557638854e-02 1.230678987545203853e+02
5.120000000000000000e+02 8.849147919208231183e-01 4.059504314557638854e-02 1.200833668139819395e+02
5.200000000000000000e+02 7.035102796722815244e-01 4.059504314557638854e-02 1.175833668139819679e+02
5.280000000000000000e+02 6.681802269502252756e-01 4.059504314557638854e-02 1.238270389714749626e+02
5.360000000000000000e+02 5.393190017771199996e-01 4.059504314557638854e-02 1.268214142225798611e+02
5.440000000000000000e+02 4.324018955909384454e-01 4.059504314557638854e-02 1.170833668139819679e+02
5.520000000000000000e+02 2.279584060908617926e-01 4.059504314557638854e-02 1.148284451586987558e+02
5.600000000000000000e+02 3.067794940780542087e-02 4.059504314557638854e-02 1.175819606267582174e+02
5.680000000000000000e+02 -6.642722605753599574e-02 4.059504314557638854e-02 1.190819606267581747e+02
5.760000000000000000e+02 -2.739917833176138684e-01 4.059504314557638854e-02 1.128425070309365452e+02
5.840000000000000000e+02 -3.788190474788387108e-01 4.059504314557638854e-02 1.183340699075938858e+02
5.920000000000000000e+02 -5.416315228714069230e-01 4.059504314557638854e-02 1.203467255926079105e+02
6.000000000000000000e+02 -6.849232711224781944e-01 4.059504314557638854e-02 1.108411008437127521e+02
6.080000000000000000e+02 -8.205567707149918899e-01 4.059504314557638854e-02 1.188270389714749626e+02
6.160000000000000000e+02 -9.235165988145872529e-01 4.059504314557638854e-02 1.145932101245484489e+02
6.240000000000000000e+02 -9.588196382286977570e-01 4.059504314557638854e-02 1.190861791884295258e+02
6.320000000000000000e+02 -9.565173940209625858e-01 4.059504314557638854e-02 1.145974286862197857e+02
6.400000000000000000e+02 -8.407487853472784822e-01 4.059504314557638854e-02 1.105861791884295258e+02
6.480000000000000000e+02 -6.709078350966171111e-01 4.059504314557638854e-02 1.140960224989960068e+02
6.560000000000000000e+02 -6.391417459179410399e-01 4.059504314557638854e-02 1.220833668139819963e+02
6.640000000000000000e+02 -4.407970373261436148e-01 4.059504314557638854e-02 1.026030534351148731e+02
6.720000000000000000e+02 -2.784290111448467497e-01 4.059504314557638854e-02 1.108396946564890015e+02
6.800000000000000000e+02 -7.702721544044457969e-02 4.059504314557638854e-02 1.065861791884295116e+02
6.880000000000000000e+02 -9.769270755766411296e-03 4.059504314557638854e-02 1.106072719967862383e+02
6.960000000000000000e+02 1.370526558346221446e-01 4.059504314557638854e-02 1.095861791884295258e+02
7.040000000000000000e+02 2.844702122326951410e-01 4.059504314557638854e-02 1.070988348734435505e+02
7.120000000000000000e+02 4.967937196948021827e-01 4.059504314557638854e-02 1.170861791884295542e+02
7.200000000000000000e+02 6.521412145627347723e-01 4.059504314557638854e-02 1.110861791884295258e+02
7.280000000000000000e+02 6.959343651359356508e-01 4.059504314557638854e-02 1.086002410606673436e+02
7.360000000000000000e+02 8.079632677369074090e-01 4.059504314557638854e-02 1.063509441542792047e+02
7.440000000000000000e+02 9.193804955540665347e-01 4.059504314557638854e-02 1.081030534351149015e+02
7.520000000000000000e+02 9.566649240818022593e-01 4.059504314557638854e-02 1.113368822820414010e+02
7.600000000000000000e+02 9.205538238735633261e-01 4.059504314557638854e-02 1.043453194053840889e+02
7.680000000000000000e+02 7.439892347481320556e-01 4.059504314557638854e-02 1.083453194053841031e+02
7.760000000000000000e+02 6.517169369348090324e-01 4.059504314557638854e-02 1.070960224989959642e+02
7.840000000000000000e+02 4.627717725922682046e-01 4.059504314557638854e-02 1.108551627159505557e+02
7.920000000000000000e+02 3.855097625264188310e-01 4.059504314557638854e-02 1.031086781840100031e+02
8.000000000000000000e+02 1.994106103374852779e-01 4.059504314557638854e-02 1.105903977501008910e+02
8.080000000000000000e+02 1.326463512897518154e-02 4.059504314557638854e-02 1.066044596223386804e+02
8.160000000000000000e+02 -1.420196969129337017e-01 4.059504314557638854e-02 1.096143029329051188e+02
8.240000000000000000e+02 -2.572616031311712459e-01 4.059504314557638854e-02 1.028523503415029836e+02
8.320000000000000000e+02 -3.635454784290113039e-01 4.059504314557638854e-02 1.028607874648456999e+02
8.400000000000000000e+02 -5.956824017933518567e-01 4.059504314557638854e-02 1.076157091201289404e+02
8.480000000000000000e+02 -6.649600854328534538e-01 4.059504314557638854e-02 1.045988348734435363e+02
8.560000000000000000e+02 -7.581350626878122778e-01 4.059504314557638854e-02 9.636078746484565727e+01
8.640000000000000000e+02 -8.673572498608289605e-01 4.059504314557638854e-02 1.098509441542792331e+02
8.720000000000000000e+02 -9.492528902748945674e-01 4.059504314557638854e-02 1.056171153073527194e+02
8.800000000000000000e+02 -9.229759047986838549e-01 4.059504314557638854e-02 9.810445962233865203e+01
8.880000000000000000e+02 -8.443614935895858986e-01 4.059504314557638854e-02 1.001002410606672868e+02
8.960000000000000000e+02 -7.347100041745252552e-01 4.059504314557638854e-02 1.038565689031743489e+02
9.040000000000000000e+02 -5.925098599448382908e-01 4.059504314557638854e-02 9.637625552430725406e+01
9.120000000000000000e+02 -4.587275279263475780e-01 4.059504314557638854e-02 9.861008437123376780e+01
9.200000000000000000e+02 -2.786066943460968059e-01 4.059504314557638854e-02 9.637063077541213829e+01
9.280000000000000000e+02 -1.733690830262266114e-01 4.059504314557638854e-02 9.861570912012889778e+01
9.360000000000000000e+02 3.705864177513730484e-02 4.059504314557638854e-02 9.734531940538408890e+01
9.440000000000000000e+02 1.354174736848049454e-01 4.059504314557638854e-02 1.011072719967862241e+02
9.520000000000000000e+02 2.898297800287421566e-01 4.059504314557638854e-02 1.046143029329051188e+02
9.600000000000000000e+02 4.052547130200240821e-01 4.059504314557638854e-02 1.048509441542792331e+02
9.680000000000000000e+02 6.116183577796093784e-01 4.059504314557638854e-02 9.785235034150295519e+01
9.760000000000000000e+02 6.902735243782076591e-01 4.059504314557638854e-02 9.086781840096456619e+01
9.840000000000000000e+02 8.351106210017793519e-01 4.059504314557638854e-02 9.136922458818831672e+01
9.920000000000000000e+02 9.234162354835945274e-01 4.059504314557638854e-02 8.761570912012888357e+01
1.000000000000000000e+03 9.720244446698590446e-01 4.059504314557638854e-02 9.387484933708348933e+01
